%!PS-Adobe-3.0 EPSF-3.0
%%Title: /home/andrebsguedes/software/tcc/sscnet_workspace/test.eps
%%Creator: matplotlib version 1.5.3, http://matplotlib.org/
%%CreationDate: Thu Jul 13 23:51:27 2017
%%Orientation: portrait
%%BoundingBox: -339 -41 951 833
%%EndComments
%%BeginProlog
/mpldict 8 dict def
mpldict begin
/m { moveto } bind def
/l { lineto } bind def
/r { rlineto } bind def
/c { curveto } bind def
/cl { closepath } bind def
/box {
m
1 index 0 r
0 exch r
neg 0 r
cl
} bind def
/clipbox {
box
clip
newpath
} bind def
%!PS-Adobe-3.0 Resource-Font
%%Title: Bitstream Vera Sans
%%Copyright: Copyright (c) 2003 by Bitstream, Inc. All Rights Reserved.
%%Creator: Converted from TrueType to type 3 by PPR
25 dict begin
/_d{bind def}bind def
/_m{moveto}_d
/_l{lineto}_d
/_cl{closepath eofill}_d
/_c{curveto}_d
/_sc{7 -1 roll{setcachedevice}{pop pop pop pop pop pop}ifelse}_d
/_e{exec}_d
/FontName /BitstreamVeraSans-Roman def
/PaintType 0 def
/FontMatrix[.001 0 0 .001 0 0]def
/FontBBox[-183 -236 1287 928]def
/FontType 3 def
/Encoding [ /space /period /zero /one /two /three /four /five /six /seven /eight /nine /C /I /L /U /a /c /e /i /m /n /o /p /r /s /t /atilde /ccedilla /otilde /tilde /cedilla ] def
/FontInfo 10 dict dup begin
/FamilyName (Bitstream Vera Sans) def
/FullName (Bitstream Vera Sans) def
/Notice (Copyright (c) 2003 by Bitstream, Inc. All Rights Reserved. Bitstream Vera is a trademark of Bitstream, Inc.) def
/Weight (Roman) def
/Version (Release 1.10) def
/ItalicAngle 0.0 def
/isFixedPitch false def
/UnderlinePosition -213 def
/UnderlineThickness 143 def
end readonly def
/CharStrings 32 dict dup begin
/space{318 0 0 0 0 0 _sc
}_d
/period{318 0 107 0 210 124 _sc
107 124 _m
210 124 _l
210 0 _l
107 0 _l
107 124 _l
_cl}_d
/zero{636 0 66 -13 570 742 _sc
318 664 _m
267 664 229 639 203 589 _c
177 539 165 464 165 364 _c
165 264 177 189 203 139 _c
229 89 267 64 318 64 _c
369 64 407 89 433 139 _c
458 189 471 264 471 364 _c
471 464 458 539 433 589 _c
407 639 369 664 318 664 _c
318 742 _m
399 742 461 709 505 645 _c
548 580 570 486 570 364 _c
570 241 548 147 505 83 _c
461 19 399 -13 318 -13 _c
236 -13 173 19 130 83 _c
87 147 66 241 66 364 _c
66 486 87 580 130 645 _c
173 709 236 742 318 742 _c
_cl}_d
/one{636 0 110 0 544 729 _sc
124 83 _m
285 83 _l
285 639 _l
110 604 _l
110 694 _l
284 729 _l
383 729 _l
383 83 _l
544 83 _l
544 0 _l
124 0 _l
124 83 _l
_cl}_d
/two{{636 0 73 0 536 742 _sc
192 83 _m
536 83 _l
536 0 _l
73 0 _l
73 83 _l
110 121 161 173 226 239 _c
290 304 331 346 348 365 _c
380 400 402 430 414 455 _c
426 479 433 504 433 528 _c
433 566 419 598 392 622 _c
365 646 330 659 286 659 _c
255 659 222 653 188 643 _c
154 632 117 616 78 594 _c
78 694 _l
118 710 155 722 189 730 _c
223 738 255 742 284 742 _c
}_e{359 742 419 723 464 685 _c
509 647 532 597 532 534 _c
532 504 526 475 515 449 _c
504 422 484 390 454 354 _c
446 344 420 317 376 272 _c
332 227 271 164 192 83 _c
_cl}_e}_d
/three{{636 0 76 -13 556 742 _sc
406 393 _m
453 383 490 362 516 330 _c
542 298 556 258 556 212 _c
556 140 531 84 482 45 _c
432 6 362 -13 271 -13 _c
240 -13 208 -10 176 -4 _c
144 1 110 10 76 22 _c
76 117 _l
103 101 133 89 166 81 _c
198 73 232 69 268 69 _c
330 69 377 81 409 105 _c
441 129 458 165 458 212 _c
458 254 443 288 413 312 _c
383 336 341 349 287 349 _c
}_e{202 349 _l
202 430 _l
291 430 _l
339 430 376 439 402 459 _c
428 478 441 506 441 543 _c
441 580 427 609 401 629 _c
374 649 336 659 287 659 _c
260 659 231 656 200 650 _c
169 644 135 635 98 623 _c
98 711 _l
135 721 170 729 203 734 _c
235 739 266 742 296 742 _c
370 742 429 725 473 691 _c
517 657 539 611 539 553 _c
539 513 527 479 504 451 _c
481 423 448 403 406 393 _c
_cl}_e}_d
/four{636 0 49 0 580 729 _sc
378 643 _m
129 254 _l
378 254 _l
378 643 _l
352 729 _m
476 729 _l
476 254 _l
580 254 _l
580 172 _l
476 172 _l
476 0 _l
378 0 _l
378 172 _l
49 172 _l
49 267 _l
352 729 _l
_cl}_d
/five{{636 0 77 -13 549 729 _sc
108 729 _m
495 729 _l
495 646 _l
198 646 _l
198 467 _l
212 472 227 476 241 478 _c
255 480 270 482 284 482 _c
365 482 429 459 477 415 _c
525 370 549 310 549 234 _c
549 155 524 94 475 51 _c
426 8 357 -13 269 -13 _c
238 -13 207 -10 175 -6 _c
143 -1 111 6 77 17 _c
77 116 _l
106 100 136 88 168 80 _c
199 72 232 69 267 69 _c
}_e{323 69 368 83 401 113 _c
433 143 450 183 450 234 _c
450 284 433 324 401 354 _c
368 384 323 399 267 399 _c
241 399 214 396 188 390 _c
162 384 135 375 108 363 _c
108 729 _l
_cl}_e}_d
/six{{636 0 70 -13 573 742 _sc
330 404 _m
286 404 251 388 225 358 _c
199 328 186 286 186 234 _c
186 181 199 139 225 109 _c
251 79 286 64 330 64 _c
374 64 409 79 435 109 _c
461 139 474 181 474 234 _c
474 286 461 328 435 358 _c
409 388 374 404 330 404 _c
526 713 _m
526 623 _l
501 635 476 644 451 650 _c
425 656 400 659 376 659 _c
310 659 260 637 226 593 _c
}_e{192 549 172 482 168 394 _c
187 422 211 444 240 459 _c
269 474 301 482 336 482 _c
409 482 467 459 509 415 _c
551 371 573 310 573 234 _c
573 159 550 99 506 54 _c
462 9 403 -13 330 -13 _c
246 -13 181 19 137 83 _c
92 147 70 241 70 364 _c
70 479 97 571 152 639 _c
206 707 280 742 372 742 _c
396 742 421 739 447 735 _c
472 730 498 723 526 713 _c
_cl}_e}_d
/seven{636 0 82 0 551 729 _sc
82 729 _m
551 729 _l
551 687 _l
286 0 _l
183 0 _l
432 646 _l
82 646 _l
82 729 _l
_cl}_d
/eight{{636 0 68 -13 568 742 _sc
318 346 _m
271 346 234 333 207 308 _c
180 283 167 249 167 205 _c
167 161 180 126 207 101 _c
234 76 271 64 318 64 _c
364 64 401 76 428 102 _c
455 127 469 161 469 205 _c
469 249 455 283 429 308 _c
402 333 365 346 318 346 _c
219 388 _m
177 398 144 418 120 447 _c
96 476 85 511 85 553 _c
85 611 105 657 147 691 _c
188 725 245 742 318 742 _c
}_e{390 742 447 725 489 691 _c
530 657 551 611 551 553 _c
551 511 539 476 515 447 _c
491 418 459 398 417 388 _c
464 377 501 355 528 323 _c
554 291 568 251 568 205 _c
568 134 546 80 503 43 _c
459 5 398 -13 318 -13 _c
237 -13 175 5 132 43 _c
89 80 68 134 68 205 _c
68 251 81 291 108 323 _c
134 355 171 377 219 388 _c
183 544 _m
183 506 194 476 218 455 _c
}_e{242 434 275 424 318 424 _c
360 424 393 434 417 455 _c
441 476 453 506 453 544 _c
453 582 441 611 417 632 _c
393 653 360 664 318 664 _c
275 664 242 653 218 632 _c
194 611 183 582 183 544 _c
_cl}_e}_d
/nine{{636 0 63 -13 566 742 _sc
110 15 _m
110 105 _l
134 93 159 84 185 78 _c
210 72 235 69 260 69 _c
324 69 374 90 408 134 _c
442 178 462 244 468 334 _c
448 306 424 284 396 269 _c
367 254 335 247 300 247 _c
226 247 168 269 126 313 _c
84 357 63 417 63 494 _c
63 568 85 628 129 674 _c
173 719 232 742 306 742 _c
390 742 455 709 499 645 _c
543 580 566 486 566 364 _c
}_e{566 248 538 157 484 89 _c
429 21 356 -13 264 -13 _c
239 -13 214 -10 189 -6 _c
163 -2 137 5 110 15 _c
306 324 _m
350 324 385 339 411 369 _c
437 399 450 441 450 494 _c
450 546 437 588 411 618 _c
385 648 350 664 306 664 _c
262 664 227 648 201 618 _c
175 588 162 546 162 494 _c
162 441 175 399 201 369 _c
227 339 262 324 306 324 _c
_cl}_e}_d
/C{{698 0 56 -13 644 742 _sc
644 673 _m
644 569 _l
610 599 575 622 537 638 _c
499 653 460 661 418 661 _c
334 661 270 635 226 584 _c
182 533 160 460 160 364 _c
160 268 182 194 226 143 _c
270 92 334 67 418 67 _c
460 67 499 74 537 90 _c
575 105 610 128 644 159 _c
644 56 _l
609 32 572 15 534 4 _c
496 -7 455 -13 412 -13 _c
302 -13 215 20 151 87 _c
}_e{87 154 56 246 56 364 _c
56 481 87 573 151 641 _c
215 708 302 742 412 742 _c
456 742 497 736 535 725 _c
573 713 610 696 644 673 _c
_cl}_e}_d
/I{295 0 98 0 197 729 _sc
98 729 _m
197 729 _l
197 0 _l
98 0 _l
98 729 _l
_cl}_d
/L{557 0 98 0 552 729 _sc
98 729 _m
197 729 _l
197 83 _l
552 83 _l
552 0 _l
98 0 _l
98 729 _l
_cl}_d
/U{732 0 87 -13 645 729 _sc
87 729 _m
186 729 _l
186 286 _l
186 208 200 151 228 117 _c
256 83 302 66 366 66 _c
429 66 475 83 503 117 _c
531 151 546 208 546 286 _c
546 729 _l
645 729 _l
645 274 _l
645 178 621 107 574 59 _c
527 11 458 -13 366 -13 _c
274 -13 204 11 157 59 _c
110 107 87 178 87 274 _c
87 729 _l
_cl}_d
/a{{613 0 60 -13 522 560 _sc
343 275 _m
270 275 220 266 192 250 _c
164 233 150 205 150 165 _c
150 133 160 107 181 89 _c
202 70 231 61 267 61 _c
317 61 357 78 387 114 _c
417 149 432 196 432 255 _c
432 275 _l
343 275 _l
522 312 _m
522 0 _l
432 0 _l
432 83 _l
411 49 385 25 355 10 _c
325 -5 287 -13 243 -13 _c
187 -13 142 2 109 33 _c
76 64 60 106 60 159 _c
}_e{60 220 80 266 122 298 _c
163 329 224 345 306 345 _c
432 345 _l
432 354 _l
432 395 418 427 391 450 _c
364 472 326 484 277 484 _c
245 484 215 480 185 472 _c
155 464 127 453 100 439 _c
100 522 _l
132 534 164 544 195 550 _c
226 556 256 560 286 560 _c
365 560 424 539 463 498 _c
502 457 522 395 522 312 _c
_cl}_e}_d
/c{{550 0 55 -13 488 560 _sc
488 526 _m
488 442 _l
462 456 437 466 411 473 _c
385 480 360 484 334 484 _c
276 484 230 465 198 428 _c
166 391 150 339 150 273 _c
150 206 166 154 198 117 _c
230 80 276 62 334 62 _c
360 62 385 65 411 72 _c
437 79 462 90 488 104 _c
488 21 _l
462 9 436 0 410 -5 _c
383 -10 354 -13 324 -13 _c
242 -13 176 12 128 64 _c
}_e{79 115 55 185 55 273 _c
55 362 79 432 128 483 _c
177 534 244 560 330 560 _c
358 560 385 557 411 551 _c
437 545 463 537 488 526 _c
_cl}_e}_d
/e{{615 0 55 -13 562 560 _sc
562 296 _m
562 252 _l
149 252 _l
153 190 171 142 205 110 _c
238 78 284 62 344 62 _c
378 62 412 66 444 74 _c
476 82 509 95 541 113 _c
541 28 _l
509 14 476 3 442 -3 _c
408 -9 373 -13 339 -13 _c
251 -13 182 12 131 62 _c
80 112 55 181 55 268 _c
55 357 79 428 127 481 _c
175 533 241 560 323 560 _c
397 560 455 536 498 489 _c
}_e{540 441 562 377 562 296 _c
472 322 _m
471 371 457 410 431 440 _c
404 469 368 484 324 484 _c
274 484 234 469 204 441 _c
174 413 156 373 152 322 _c
472 322 _l
_cl}_e}_d
/i{278 0 94 0 184 760 _sc
94 547 _m
184 547 _l
184 0 _l
94 0 _l
94 547 _l
94 760 _m
184 760 _l
184 646 _l
94 646 _l
94 760 _l
_cl}_d
/m{{974 0 91 0 889 560 _sc
520 442 _m
542 482 569 511 600 531 _c
631 550 668 560 711 560 _c
767 560 811 540 842 500 _c
873 460 889 403 889 330 _c
889 0 _l
799 0 _l
799 327 _l
799 379 789 418 771 444 _c
752 469 724 482 686 482 _c
639 482 602 466 575 435 _c
548 404 535 362 535 309 _c
535 0 _l
445 0 _l
445 327 _l
445 379 435 418 417 444 _c
398 469 369 482 331 482 _c
}_e{285 482 248 466 221 435 _c
194 404 181 362 181 309 _c
181 0 _l
91 0 _l
91 547 _l
181 547 _l
181 462 _l
201 495 226 520 255 536 _c
283 552 317 560 357 560 _c
397 560 430 550 458 530 _c
486 510 506 480 520 442 _c
_cl}_e}_d
/n{634 0 91 0 549 560 _sc
549 330 _m
549 0 _l
459 0 _l
459 327 _l
459 379 448 417 428 443 _c
408 469 378 482 338 482 _c
289 482 251 466 223 435 _c
195 404 181 362 181 309 _c
181 0 _l
91 0 _l
91 547 _l
181 547 _l
181 462 _l
202 494 227 519 257 535 _c
286 551 320 560 358 560 _c
420 560 468 540 500 501 _c
532 462 549 405 549 330 _c
_cl}_d
/o{612 0 55 -13 557 560 _sc
306 484 _m
258 484 220 465 192 427 _c
164 389 150 338 150 273 _c
150 207 163 156 191 118 _c
219 80 257 62 306 62 _c
354 62 392 80 420 118 _c
448 156 462 207 462 273 _c
462 337 448 389 420 427 _c
392 465 354 484 306 484 _c
306 560 _m
384 560 445 534 490 484 _c
534 433 557 363 557 273 _c
557 183 534 113 490 63 _c
445 12 384 -13 306 -13 _c
227 -13 165 12 121 63 _c
77 113 55 183 55 273 _c
55 363 77 433 121 484 _c
165 534 227 560 306 560 _c
_cl}_d
/p{{635 0 91 -207 580 560 _sc
181 82 _m
181 -207 _l
91 -207 _l
91 547 _l
181 547 _l
181 464 _l
199 496 223 520 252 536 _c
281 552 316 560 356 560 _c
422 560 476 533 518 481 _c
559 428 580 359 580 273 _c
580 187 559 117 518 65 _c
476 13 422 -13 356 -13 _c
316 -13 281 -5 252 10 _c
223 25 199 49 181 82 _c
487 273 _m
487 339 473 390 446 428 _c
418 466 381 485 334 485 _c
}_e{286 485 249 466 222 428 _c
194 390 181 339 181 273 _c
181 207 194 155 222 117 _c
249 79 286 61 334 61 _c
381 61 418 79 446 117 _c
473 155 487 207 487 273 _c
_cl}_e}_d
/r{411 0 91 0 411 560 _sc
411 463 _m
401 469 390 473 378 476 _c
366 478 353 480 339 480 _c
288 480 249 463 222 430 _c
194 397 181 350 181 288 _c
181 0 _l
91 0 _l
91 547 _l
181 547 _l
181 462 _l
199 495 224 520 254 536 _c
284 552 321 560 365 560 _c
371 560 378 559 386 559 _c
393 558 401 557 411 555 _c
411 463 _l
_cl}_d
/s{{521 0 54 -13 472 560 _sc
443 531 _m
443 446 _l
417 458 391 468 364 475 _c
336 481 308 485 279 485 _c
234 485 200 478 178 464 _c
156 450 145 430 145 403 _c
145 382 153 366 169 354 _c
185 342 217 330 265 320 _c
296 313 _l
360 299 405 279 432 255 _c
458 230 472 195 472 151 _c
472 100 452 60 412 31 _c
372 1 316 -13 246 -13 _c
216 -13 186 -10 154 -5 _c
}_e{122 0 89 8 54 20 _c
54 113 _l
87 95 120 82 152 74 _c
184 65 216 61 248 61 _c
290 61 323 68 346 82 _c
368 96 380 117 380 144 _c
380 168 371 187 355 200 _c
339 213 303 226 247 238 _c
216 245 _l
160 257 119 275 95 299 _c
70 323 58 356 58 399 _c
58 450 76 490 112 518 _c
148 546 200 560 268 560 _c
301 560 332 557 362 552 _c
391 547 418 540 443 531 _c
}_e{_cl}_e}_d
/t{392 0 27 0 368 702 _sc
183 702 _m
183 547 _l
368 547 _l
368 477 _l
183 477 _l
183 180 _l
183 135 189 106 201 94 _c
213 81 238 75 276 75 _c
368 75 _l
368 0 _l
276 0 _l
206 0 158 13 132 39 _c
106 65 93 112 93 180 _c
93 477 _l
27 477 _l
27 547 _l
93 547 _l
93 702 _l
183 702 _l
_cl}_d
/atilde{613 0 60 -13 522 777 _sc
false CharStrings /a get exec
gsave 40 0 translate
false CharStrings /tilde get exec
grestore }_d
/ccedilla{550 0 55 -192 488 560 _sc
false CharStrings /c get exec
gsave 70 0 translate
false CharStrings /cedilla get exec
grestore }_d
/otilde{612 0 55 -13 557 777 _sc
false CharStrings /o get exec
gsave 56 0 translate
false CharStrings /tilde get exec
grestore }_d
/tilde{{500 0 89 639 411 777 _sc
248 669 _m
220 696 _l
212 702 206 707 201 710 _c
195 713 191 715 187 715 _c
174 715 165 709 159 697 _c
153 685 150 665 150 639 _c
89 639 _l
89 683 98 717 115 741 _c
131 765 154 777 184 777 _c
196 777 208 774 218 770 _c
228 765 240 757 252 747 _c
280 720 _l
287 713 293 708 299 705 _c
304 702 309 701 313 701 _c
325 701 334 707 340 719 _c
}_e{346 731 349 750 350 777 _c
411 777 _l
410 733 401 699 385 675 _c
368 651 345 639 316 639 _c
303 639 291 641 281 646 _c
271 650 260 658 248 669 _c
_cl}_e}_d
/cedilla{500 0 142 -192 344 0 _sc
291 0 _m
309 -19 322 -37 331 -55 _c
339 -72 344 -88 344 -104 _c
344 -132 334 -154 315 -169 _c
295 -184 266 -192 228 -192 _c
213 -192 198 -191 184 -189 _c
170 -187 156 -184 142 -180 _c
142 -116 _l
153 -121 165 -125 177 -128 _c
189 -130 202 -132 218 -132 _c
237 -132 251 -128 261 -120 _c
271 -112 276 -100 276 -86 _c
276 -76 272 -64 265 -50 _c
258 -36 247 -19 233 0 _c
291 0 _l
_cl}_d
end readonly def

/BuildGlyph
 {exch begin
 CharStrings exch
 2 copy known not{pop /.notdef}if
 true 3 1 roll get exec
 end}_d

/BuildChar {
 1 index /Encoding get exch get
 1 index /BuildGlyph get exec
}_d

FontName currentdict end definefont pop
end
%%EndProlog
mpldict begin
-339.3 -41.85 translate
1290.6 875.7 0 0 clipbox
100000 setmiterlimit
gsave
0 0 m
1290.6 0 l
1290.6 875.7 l
0 875.7 l
cl
1.000 setgray
fill
grestore
gsave
118.523461 91.9485 m
1154.935758 91.9485 l
1154.935758 817.401083 l
118.523461 817.401083 l
cl
1.000 setgray
fill
grestore
1.000 setlinewidth
1 setlinejoin
2 setlinecap
[] 0 setdash
1.000 0.000 0.000 setrgbcolor
gsave
1036 725.5 118.5 91.95 clipbox
133.329351 599.649236 m
134.069645 409.428677 l
134.80994 482.027981 l
135.550234 365.291053 l
136.290529 454.729201 l
137.030823 475.023737 l
137.771118 354.603323 l
138.511412 503.251097 l
139.251707 475.506163 l
139.992001 427.050283 l
140.732296 438.910344 l
141.47259 382.203892 l
142.212885 396.120975 l
142.953179 401.022495 l
143.693474 464.410365 l
144.433768 458.925944 l
145.174063 447.920828 l
145.914357 553.981996 l
146.654652 527.33975 l
147.394946 471.128056 l
148.135241 393.511159 l
148.875535 424.604419 l
149.61583 489.902769 l
151.096419 376.532667 l
151.836713 565.9302 l
152.577008 441.327915 l
153.317302 462.506052 l
154.057597 416.274047 l
154.797891 539.248054 l
155.538186 418.872619 l
156.27848 468.534563 l
157.018775 443.468363 l
157.759069 382.385255 l
158.499364 523.288097 l
159.239658 396.087241 l
159.979953 394.77127 l
160.720247 491.846982 l
161.460542 460.783102 l
162.200836 462.364589 l
162.941131 396.81487 l
163.681425 512.943143 l
164.42172 409.275969 l
165.162014 425.920753 l
165.902309 412.594552 l
166.642603 411.590888 l
167.382898 427.888906 l
168.123192 407.424614 l
168.863487 442.156745 l
169.603781 458.552336 l
170.344076 402.190836 l
171.08437 457.718065 l
171.824665 416.378513 l
172.564959 391.621355 l
173.305254 409.44246 l
174.045548 534.275076 l
175.526137 434.978754 l
176.266432 387.020897 l
177.006726 494.001576 l
177.747021 404.120903 l
178.487315 413.486133 l
179.22761 324.511913 l
179.967904 374.04908 l
180.708199 455.139081 l
181.448493 600.556052 l
182.188788 376.487689 l
183.669377 515.70349 l
185.149966 342.949653 l
185.89026 340.395334 l
187.370849 433.336329 l
188.111144 385.620048 l
188.851438 406.205128 l
189.591733 432.543772 l
190.332027 403.756 l
191.072322 444.736454 l
193.293205 369.829122 l
194.0335 336.289635 l
194.773794 391.923869 l
195.514089 426.911721 l
196.254383 413.516602 l
196.994678 375.842761 l
197.734972 396.458673 l
198.475267 366.838444 l
199.215561 366.768075 l
199.955856 364.104938 l
200.69615 378.923033 l
201.436445 434.686759 l
202.176739 382.572785 l
202.917034 341.976096 l
203.657328 383.881501 l
204.397623 362.51656 l
205.137917 378.295154 l
205.878212 501.081993 l
206.618506 378.638656 l
207.358801 417.212783 l
208.099095 325.72088 l
208.83939 455.955215 l
209.579684 376.323736 l
210.319979 408.775769 l
211.060273 464.236257 l
211.800568 383.103453 l
212.540862 389.09678 l
213.281157 403.885856 l
214.021451 391.229611 l
214.761746 385.503976 l
215.50204 314.702706 l
216.242335 464.64251 l
216.982629 323.810763 l
217.722924 469.281779 l
218.463218 394.162978 l
219.203513 369.799016 l
219.943807 408.888215 l
220.684102 408.843962 l
221.424396 386.016871 l
222.164691 355.703835 l
222.904985 459.125443 l
223.64528 338.260327 l
224.385574 410.470064 l
225.125869 360.045306 l
225.866163 487.127913 l
226.606458 368.629586 l
227.346752 335.708185 l
229.567636 425.734312 l
230.30793 364.158985 l
231.048225 368.053214 l
231.788519 405.239188 l
232.528814 393.263054 l
233.269108 313.276466 l
234.009403 368.74856 l
234.749697 294.698713 l
235.489992 369.995976 l
236.230286 371.872359 l
236.970581 325.158654 l
237.710875 379.665534 l
239.191464 420.167914 l
239.931759 425.887745 l
240.672053 357.904495 l
241.412348 398.691253 l
242.152642 338.093473 l
242.892937 359.303893 l
243.633231 401.436728 l
244.373526 398.57772 l
245.11382 331.745038 l
245.854115 343.787551 l
246.594409 348.091661 l
247.334704 408.457658 l
248.074998 335.86851 l
248.815293 414.116551 l
249.555587 320.507052 l
250.295882 380.50851 l
251.036176 422.788612 l
251.776471 398.330703 l
252.516765 413.313113 l
253.25706 349.85705 l
253.997354 395.377386 l
254.737649 361.622077 l
255.477943 370.877038 l
256.218238 483.504277 l
256.958532 340.071057 l
257.698827 397.14749 l
258.439121 425.965006 l
259.179416 335.495628 l
259.91971 339.197612 l
260.660005 400.08122 l
261.400299 333.542709 l
262.140594 437.157651 l
262.880888 356.852589 l
263.621183 378.258156 l
264.361477 309.057596 l
265.101771 364.408178 l
265.842066 358.224783 l
266.58236 325.616777 l
267.322655 311.989876 l
268.062949 372.125542 l
268.803244 381.146182 l
269.543538 384.430306 l
270.283833 322.01164 l
271.024127 502.931898 l
271.764422 458.94408 l
272.504716 303.929735 l
273.245011 322.168701 l
273.985305 326.778952 l
274.7256 316.437626 l
275.465894 400.029713 l
276.206189 416.31431 l
276.946483 360.419277 l
277.686778 385.428892 l
278.427072 347.810911 l
279.167367 353.902899 l
279.907661 403.100191 l
280.647956 331.476258 l
281.38825 348.123581 l
282.128545 378.222971 l
282.868839 399.233166 l
283.609134 314.49305 l
284.349428 410.67174 l
285.089723 308.236021 l
285.830017 342.438572 l
286.570312 389.75005 l
287.310606 327.222929 l
288.050901 318.374947 l
288.791195 336.533025 l
289.53149 261.519777 l
290.271784 310.606438 l
291.012079 370.296676 l
291.752373 402.531436 l
292.492668 329.348142 l
293.232962 412.049012 l
293.973257 403.954412 l
294.713551 295.116937 l
295.453846 361.381589 l
296.19414 410.92855 l
296.934435 352.907215 l
297.674729 347.425333 l
298.415024 456.499305 l
299.155318 381.046795 l
299.895613 324.853238 l
300.635907 334.107111 l
301.376202 399.353954 l
302.116496 371.853135 l
302.856791 333.539082 l
303.597085 376.004174 l
304.33738 377.952377 l
305.077674 322.395405 l
305.817969 441.686289 l
306.558263 322.648225 l
307.298558 333.167288 l
308.038852 351.077624 l
308.779147 434.764383 l
309.519441 396.835183 l
310.259736 317.841014 l
311.00003 290.048925 l
311.740325 281.647459 l
312.480619 292.776627 l
313.220914 321.890127 l
313.961208 298.374219 l
314.701503 339.437737 l
315.441797 353.317096 l
316.182092 384.034572 l
316.922386 338.041966 l
317.662681 429.377172 l
318.402975 324.189086 l
319.14327 363.434983 l
319.883564 311.409876 l
320.623859 375.005589 l
321.364153 321.556056 l
322.104448 313.071526 l
322.844742 346.612463 l
323.585037 305.329133 l
324.325331 334.053065 l
325.065626 410.097907 l
325.80592 317.668719 l
326.546215 254.494131 l
327.286509 361.308681 l
328.026804 311.560408 l
328.767098 325.658491 l
329.507393 394.79521 l
330.247687 365.700209 l
330.987982 276.458659 l
331.728276 303.433163 l
332.468571 471.432746 l
333.94916 358.954588 l
334.689454 453.361722 l
335.429749 358.855201 l
336.170043 415.145969 l
336.910338 320.208165 l
337.650632 348.520766 l
338.390927 333.183973 l
339.131221 377.111941 l
339.871516 306.043341 l
341.352105 360.380465 l
342.092399 347.971961 l
342.832694 364.619284 l
343.572988 342.217309 l
344.313283 333.518769 l
345.053577 290.654315 l
345.793872 470.914048 l
346.534166 308.847215 l
347.274461 323.263409 l
348.014755 360.759877 l
348.75505 373.826003 l
349.495344 464.671528 l
350.235639 340.694946 l
350.975933 292.162168 l
351.716228 352.860061 l
352.456522 361.930394 l
353.196817 357.360043 l
353.937111 346.845696 l
354.677406 342.121549 l
355.4177 315.425619 l
356.157995 380.26512 l
356.898289 356.745222 l
357.638584 312.300007 l
359.119173 301.437442 l
359.859467 364.637058 l
360.599762 232.040648 l
361.340056 329.090607 l
362.080351 337.733286 l
362.820645 362.173058 l
363.56094 354.776344 l
364.301234 438.317287 l
365.041529 317.817074 l
365.781823 306.418763 l
366.522118 398.230228 l
367.262412 345.838768 l
368.002707 368.056841 l
368.743001 375.838771 l
369.483296 359.261817 l
370.22359 350.361602 l
370.963885 357.839204 l
371.704179 337.179403 l
372.444474 421.601408 l
373.184768 339.03765 l
373.925063 325.122018 l
374.665357 284.051609 l
375.405652 317.964703 l
376.145946 330.6623 l
376.886241 320.186402 l
377.626535 333.991764 l
378.36683 280.312263 l
379.107124 375.486927 l
379.847419 345.356342 l
380.587713 340.78454 l
381.328008 397.058259 l
382.068302 341.312669 l
382.808597 367.644422 l
383.548891 344.242047 l
384.289186 353.079147 l
385.02948 322.19518 l
385.769775 284.881164 l
386.510069 362.943852 l
387.250364 321.612642 l
387.990658 415.157939 l
388.730953 317.075661 l
389.471247 298.298409 l
390.211542 328.623053 l
390.951836 306.964303 l
391.692131 343.703761 l
392.432425 333.840508 l
393.17272 347.811636 l
393.913014 306.29072 l
394.653309 310.576694 l
395.393603 319.179474 l
396.133898 364.634882 l
396.874192 331.195145 l
397.614487 363.568829 l
398.354781 344.241321 l
399.095076 434.597166 l
399.83537 348.993036 l
400.575665 319.108017 l
401.315959 378.969462 l
402.056254 352.783525 l
402.796548 372.038488 l
403.536843 346.001632 l
404.277137 337.791322 l
405.017432 304.000104 l
405.757726 326.790197 l
406.498021 279.988711 l
407.238315 297.988278 l
407.97861 356.324459 l
408.718904 316.914611 l
409.459199 309.429028 l
410.199493 372.61087 l
410.939788 329.292645 l
411.680082 322.902496 l
412.420377 379.371363 l
413.160671 328.175811 l
413.900966 341.855308 l
414.64126 287.95273 l
415.381555 255.542048 l
416.121849 340.11531 l
416.862144 484.407466 l
417.602438 369.773262 l
418.342733 383.763253 l
419.823322 298.056471 l
420.563616 277.487351 l
422.044205 309.194344 l
422.7845 382.329033 l
423.524794 368.220431 l
424.265089 406.74559 l
425.005383 329.788855 l
425.745678 320.557108 l
426.485972 329.110557 l
427.226267 299.865387 l
427.966561 335.349086 l
428.706856 289.626712 l
429.44715 297.203701 l
430.187444 328.874422 l
430.927739 341.664151 l
431.668033 281.85385 l
432.408328 291.531025 l
433.148622 332.873479 l
433.888917 320.261849 l
434.629211 309.625626 l
435.369506 275.091906 l
436.1098 369.410536 l
436.850095 356.261345 l
437.590389 314.406358 l
438.330684 387.266463 l
439.070978 318.606003 l
439.811273 300.678256 l
440.551567 360.696762 l
441.291862 399.685486 l
442.032156 274.847429 l
442.772451 314.643944 l
443.512745 280.244071 l
444.25304 340.55711 l
444.993334 302.935502 l
445.733629 311.972465 l
446.473923 373.215897 l
447.214218 243.662399 l
447.954512 393.044693 l
448.694807 315.465156 l
449.435101 311.663059 l
450.175396 304.621091 l
450.91569 317.24578 l
451.655985 520.67284 l
452.396279 295.477487 l
453.136574 267.879094 l
453.876868 305.013198 l
454.617163 399.102585 l
456.097752 297.731831 l
456.838046 304.371898 l
457.578341 342.073669 l
458.318635 332.30146 l
459.05893 307.068768 l
459.799224 299.555256 l
460.539519 352.098335 l
461.279813 268.238556 l
462.020108 375.355983 l
462.760402 292.678328 l
463.500697 341.058398 l
464.240991 283.579702 l
464.981286 375.80395 l
465.72158 332.565525 l
466.461875 339.551633 l
467.202169 292.829222 l
467.942464 283.010221 l
468.682758 332.904674 l
469.423053 281.816489 l
470.163347 305.318977 l
470.903642 341.640211 l
471.643936 406.657811 l
472.384231 282.639878 l
473.124525 352.863688 l
473.86482 334.591351 l
474.605114 269.92886 l
475.345409 320.305013 l
476.085703 297.518548 l
476.825998 288.249803 l
477.566292 347.883819 l
478.306587 297.130431 l
479.046881 268.920481 l
479.787176 284.002641 l
480.52747 366.05024 l
481.267765 370.755888 l
482.008059 396.330268 l
482.748354 263.771944 l
483.488648 377.467775 l
484.228943 288.659683 l
484.969237 308.811668 l
485.709532 333.229677 l
486.449826 265.872855 l
487.190121 375.221411 l
487.930415 330.891906 l
488.67071 271.680828 l
489.411004 267.25593 l
490.151299 324.115453 l
491.631888 285.138337 l
492.372182 337.692661 l
493.112477 319.357572 l
493.852771 342.212593 l
494.593066 323.447674 l
495.33336 267.490252 l
496.073655 278.018382 l
496.813949 285.647967 l
497.554244 286.645464 l
498.294538 342.999346 l
499.034833 326.194963 l
499.775127 340.721788 l
500.515422 281.141456 l
501.255716 288.362611 l
501.996011 296.741588 l
502.736305 317.373822 l
503.4766 323.363884 l
504.216894 312.649312 l
504.957189 215.908034 l
505.697483 425.086483 l
506.437778 330.669554 l
507.178072 348.869709 l
507.918367 289.118169 l
508.658661 277.023061 l
509.398956 303.220242 l
510.13925 309.041999 l
510.879545 309.854143 l
511.619839 303.123757 l
512.360134 357.461244 l
513.100428 308.649892 l
513.840723 347.202981 l
514.581017 319.30135 l
515.321312 399.797931 l
516.061606 295.513759 l
516.801901 381.007621 l
517.542195 379.669886 l
519.763079 242.385602 l
520.503373 275.707453 l
521.243668 292.543394 l
521.983962 254.506464 l
522.724257 302.274977 l
523.464551 274.391482 l
524.204846 283.830346 l
524.94514 324.540568 l
525.685435 300.952115 l
526.425729 331.335157 l
527.906318 319.803363 l
528.646613 327.101053 l
529.386907 292.895964 l
530.127202 307.843552 l
530.867496 288.739483 l
531.607791 334.984909 l
532.348085 317.868944 l
533.08838 267.929876 l
533.828674 336.770973 l
534.568969 258.17943 l
535.309263 297.849717 l
536.049558 358.074614 l
536.789852 360.384818 l
537.530147 232.084901 l
538.270441 325.888096 l
539.010736 249.029297 l
540.491325 313.108886 l
541.231619 283.807857 l
541.971914 222.704799 l
542.712208 321.153793 l
543.452503 352.028692 l
544.192797 292.256477 l
544.933092 257.674515 l
545.673386 433.902908 l
546.413681 280.949211 l
547.153975 331.942724 l
547.89427 291.585071 l
548.634564 263.913408 l
549.374859 347.867133 l
550.115153 262.727293 l
550.855448 365.618233 l
551.595742 286.557685 l
552.336037 296.062564 l
553.076331 272.846631 l
553.816626 318.585328 l
554.55692 245.353791 l
555.297215 389.212127 l
556.037509 369.243319 l
556.777804 277.385788 l
557.518098 287.134782 l
558.258393 249.27051 l
558.998687 265.833681 l
559.738982 323.845585 l
560.479276 358.817477 l
561.219571 339.654647 l
561.959865 313.764696 l
562.70016 334.084985 l
563.440454 286.260974 l
564.180749 291.059118 l
564.921043 307.784427 l
565.661338 293.695413 l
566.401632 313.894914 l
567.141927 246.821019 l
567.882221 256.701321 l
568.622516 272.876374 l
569.36281 386.887051 l
570.103105 263.775572 l
570.843399 294.849608 l
571.583694 278.523297 l
572.323988 225.201807 l
573.064283 297.901949 l
573.804577 320.658309 l
574.544872 368.183433 l
575.285166 285.362864 l
576.025461 291.63948 l
576.765755 363.650442 l
577.50605 280.223758 l
578.246344 342.882911 l
578.986639 265.119473 l
579.726933 278.883847 l
580.467228 289.101121 l
581.207522 321.770427 l
581.947817 262.808906 l
582.688111 312.915553 l
583.428406 284.881526 l
584.1687 328.019476 l
584.908995 314.89749 l
585.649289 251.931833 l
586.389584 348.626319 l
587.129878 380.265483 l
587.870173 304.034563 l
588.610467 269.173302 l
589.350762 305.279439 l
590.091056 234.062122 l
591.571645 316.221078 l
592.31194 277.934955 l
593.052234 294.957337 l
593.792529 271.14617 l
594.532823 336.988972 l
595.273118 331.973555 l
596.753706 298.456921 l
597.494001 274.550356 l
598.234295 279.618731 l
598.97459 325.174976 l
599.714884 322.823785 l
600.455179 304.624718 l
601.195473 257.605597 l
601.935768 317.701001 l
602.676062 254.479259 l
603.416357 284.656999 l
604.156651 273.280814 l
604.896946 282.159628 l
605.63724 343.322898 l
606.377535 263.714271 l
607.117829 248.018379 l
607.858124 288.096007 l
608.598418 392.965256 l
609.338713 377.56027 l
610.079007 355.741921 l
610.819302 281.339867 l
611.559596 283.492647 l
612.299891 281.31629 l
613.040185 296.563489 l
613.78048 277.263912 l
614.520774 275.001225 l
615.261069 270.412375 l
616.001363 286.79926 l
616.741658 327.674886 l
617.481952 346.349124 l
618.222247 290.741007 l
618.962541 294.536575 l
619.702836 281.612274 l
620.44313 288.007139 l
621.183425 318.543252 l
621.923719 266.815218 l
622.664014 282.477376 l
623.404308 251.272396 l
624.144603 250.448645 l
624.884897 293.808583 l
625.625192 292.777715 l
626.365486 292.128435 l
627.105781 284.400551 l
627.846075 220.202713 l
628.58637 267.786236 l
629.326664 308.180887 l
630.066959 284.837274 l
630.807253 349.164242 l
631.547548 247.662544 l
632.287842 284.072647 l
633.028137 305.827882 l
633.768431 259.493225 l
634.508726 338.267582 l
635.24902 310.846925 l
635.989315 212.224548 l
636.729609 304.65156 l
637.469904 312.561895 l
638.210198 248.155489 l
639.690787 322.891614 l
640.431082 336.454676 l
641.171376 220.028604 l
641.911671 307.502589 l
642.651965 270.425795 l
643.39226 278.233116 l
644.132554 290.369938 l
644.872849 252.138224 l
645.613143 268.287887 l
646.353438 310.535343 l
647.093732 315.500704 l
647.834027 299.251291 l
648.574321 253.847028 l
649.314616 305.612785 l
650.05491 257.030676 l
650.795205 269.966584 l
651.535499 331.494031 l
652.275794 258.790261 l
653.016088 283.630121 l
653.756383 283.920664 l
654.496677 197.287842 l
655.236972 241.734509 l
655.977266 320.692768 l
656.717561 319.873732 l
657.457855 304.354487 l
658.19815 295.372659 l
658.938444 304.202142 l
659.678739 295.691133 l
660.419033 357.61903 l
661.159328 286.721274 l
661.899622 277.41009 l
662.639917 299.901659 l
663.380211 285.903326 l
664.120506 328.66259 l
664.8608 334.594616 l
665.601095 315.66393 l
666.341389 265.794143 l
667.081684 292.659104 l
667.821978 264.704876 l
668.562273 213.877129 l
669.302567 320.41238 l
670.042862 255.861972 l
670.783156 288.302761 l
671.523451 207.952358 l
672.263745 260.792511 l
673.00404 237.57295 l
673.744334 318.240375 l
674.484629 339.189995 l
675.224923 292.592725 l
675.965218 328.817837 l
676.705512 244.08969 l
677.445807 236.542807 l
678.186101 258.52402 l
678.926396 284.096224 l
679.66669 252.540487 l
680.406985 282.121179 l
681.147279 248.265033 l
681.887574 251.994947 l
682.627868 290.465335 l
683.368163 293.253975 l
684.108457 247.425684 l
684.848752 247.47175 l
685.589046 260.196189 l
686.329341 246.899731 l
687.069635 213.741832 l
687.80993 350.34274 l
688.550224 279.673865 l
689.290519 278.94007 l
690.030813 269.744595 l
690.771108 292.138591 l
691.511402 285.03496 l
692.251697 351.109906 l
692.991991 282.466132 l
693.732286 240.212509 l
694.47258 267.233804 l
695.212875 235.568524 l
695.953169 253.026903 l
696.693464 255.687864 l
697.433758 273.063178 l
698.174053 295.135073 l
698.914347 276.665413 l
699.654642 300.590477 l
700.394936 241.887216 l
701.135231 320.970979 l
701.875525 254.384225 l
702.61582 265.016821 l
703.356114 282.080191 l
704.096409 274.348318 l
704.836703 291.208561 l
705.576998 364.348691 l
706.317292 238.423543 l
707.057587 290.234641 l
707.797881 251.981889 l
708.538176 290.968799 l
709.27847 238.503343 l
710.018765 296.306679 l
710.759059 217.138764 l
711.499354 281.155602 l
712.239648 234.205399 l
712.979943 252.953995 l
713.720237 251.340952 l
714.460532 264.576471 l
715.200826 219.910356 l
715.941121 248.742743 l
716.681415 268.528737 l
717.42171 332.038846 l
718.162004 280.683332 l
718.902299 252.222739 l
719.642593 263.341026 l
720.382888 296.824652 l
721.123182 301.466823 l
721.863477 304.901479 l
722.603771 237.190636 l
723.344066 232.334457 l
724.08436 280.381907 l
724.824655 220.615133 l
725.564949 300.097169 l
726.305244 234.333441 l
727.045538 299.33363 l
727.785833 317.041565 l
728.526127 267.362572 l
729.266422 277.435844 l
730.006716 269.176566 l
730.747011 296.893933 l
731.487305 233.705562 l
732.2276 219.486329 l
732.967894 257.591088 l
733.708189 310.172617 l
734.448483 279.576292 l
735.188778 253.993569 l
735.929072 256.53229 l
736.669367 263.863351 l
737.409661 257.77354 l
738.149956 267.345524 l
738.89025 262.63516 l
739.630545 283.892372 l
740.370839 249.097852 l
741.111134 301.171927 l
741.851428 325.600454 l
742.591723 265.126364 l
743.332017 249.529497 l
744.072312 207.732183 l
744.812606 287.06804 l
745.552901 262.013085 l
746.293195 252.405191 l
747.03349 288.896544 l
747.773784 241.525215 l
748.514079 282.494062 l
749.254373 306.798537 l
749.994668 256.170289 l
750.734962 309.335082 l
751.475257 261.716737 l
752.215551 346.716203 l
752.955846 254.168766 l
753.69614 256.787287 l
754.436435 262.098325 l
755.176729 277.65747 l
755.917024 248.220055 l
756.657318 258.48267 l
757.397613 271.578177 l
758.137907 323.61344 l
758.878202 225.377729 l
759.618496 240.39097 l
760.358791 234.033467 l
761.099085 231.510343 l
761.839379 263.267392 l
762.579674 300.929988 l
763.319968 246.860919 l
764.060263 257.566786 l
764.800557 248.863894 l
765.540852 291.282557 l
766.281146 306.923678 l
767.021441 297.324852 l
767.761735 276.005251 l
768.50203 287.067678 l
769.242324 271.122955 l
769.982619 265.255858 l
770.722913 308.083314 l
771.463208 245.41219 l
772.943797 269.210662 l
773.684091 263.024003 l
774.424386 241.99676 l
775.16468 235.667549 l
775.904975 311.233229 l
776.645269 234.970751 l
777.385564 281.438166 l
778.125858 243.662036 l
778.866153 238.227308 l
779.606447 253.894545 l
780.346742 288.167464 l
781.087036 242.939123 l
781.827331 204.77415 l
782.567625 265.982761 l
783.30792 258.784095 l
784.048214 274.395109 l
784.788509 272.093611 l
785.528803 247.924795 l
786.269098 280.085197 l
787.009392 202.715316 l
787.749687 271.828458 l
788.489981 257.666535 l
789.230276 274.744052 l
789.97057 252.046092 l
790.710865 272.399389 l
791.451159 287.637883 l
792.191454 273.275736 l
792.931748 263.087843 l
793.672043 256.763347 l
794.412337 222.958345 l
795.152632 246.971913 l
795.892926 262.001477 l
796.633221 241.442877 l
797.373515 214.131038 l
798.11381 228.345193 l
798.854104 279.833102 l
799.594399 243.576433 l
800.334693 268.87768 l
801.074988 262.897774 l
801.815282 253.306203 l
802.555577 274.174934 l
803.295871 211.418933 l
804.036166 265.82425 l
804.77646 242.871293 l
805.516755 289.75294 l
806.257049 276.186977 l
806.997344 222.236157 l
807.737638 290.84257 l
808.477933 252.30399 l
809.218227 276.15542 l
809.958522 256.260608 l
810.698816 222.479909 l
811.439111 211.941259 l
812.179405 246.412227 l
812.9197 321.725812 l
813.659994 235.263109 l
814.400289 280.659392 l
815.140583 258.471425 l
815.880878 297.698097 l
817.361467 227.604869 l
818.101761 277.935318 l
818.842056 255.502873 l
819.58235 269.769986 l
820.322645 278.624498 l
821.062939 342.446914 l
821.803234 247.927697 l
822.543528 285.274359 l
823.283823 259.405083 l
824.024117 289.100396 l
824.764412 293.282267 l
825.504706 231.746477 l
826.245001 238.549409 l
826.985295 242.870567 l
827.72559 292.531424 l
828.465884 270.354701 l
829.206179 216.305219 l
829.946473 289.271965 l
830.686768 302.220206 l
831.427062 289.185999 l
832.167357 245.285962 l
832.907651 247.004922 l
833.647946 248.415201 l
834.38824 264.798097 l
835.128535 246.342946 l
835.868829 264.012795 l
836.609124 258.888198 l
837.349418 276.724175 l
838.089713 250.245155 l
838.830007 309.793568 l
839.570302 261.239752 l
840.310596 271.527395 l
841.050891 267.203335 l
841.791185 226.519229 l
842.53148 238.954574 l
843.271774 230.027155 l
844.012069 209.47073 l
844.752363 277.761935 l
845.492658 220.972056 l
846.232952 243.792255 l
846.973247 273.3987 l
847.713541 248.15295 l
848.453836 266.502548 l
849.19413 269.282119 l
849.934425 264.271781 l
850.674719 265.050555 l
851.415014 254.099485 l
852.155308 239.277401 l
852.895603 285.42489 l
853.635897 298.453293 l
854.376192 248.08512 l
855.116486 283.639552 l
855.856781 256.825736 l
856.597075 245.293579 l
857.33737 259.772162 l
858.077664 250.333298 l
858.817959 203.243808 l
859.558253 273.247081 l
860.298548 310.468602 l
861.038842 263.463264 l
861.779137 263.995746 l
862.519431 276.256621 l
863.259726 254.634506 l
864.00002 253.969992 l
864.740315 236.16267 l
865.480609 226.54462 l
866.220904 208.490644 l
867.701493 276.802161 l
868.441787 298.221511 l
869.182082 275.352707 l
869.922376 276.563124 l
870.662671 274.883339 l
871.402965 263.709555 l
872.14326 224.201045 l
872.883554 199.786664 l
873.623849 240.65032 l
874.364143 247.780793 l
875.104438 279.572302 l
875.844732 271.714562 l
876.585027 270.394601 l
877.325321 226.618978 l
878.065616 282.626457 l
878.80591 279.702158 l
879.546205 195.639977 l
880.286499 254.371893 l
881.026794 224.653365 l
881.767088 234.448063 l
882.507383 272.13605 l
883.247677 295.838762 l
883.987972 225.035315 l
884.728266 258.761243 l
885.468561 215.000493 l
886.208855 206.235212 l
886.94915 262.795122 l
887.689444 249.652461 l
888.429739 243.514406 l
889.170033 205.411823 l
889.910328 209.933932 l
890.650622 277.053168 l
891.390917 257.201158 l
892.131211 224.832914 l
892.871506 233.813292 l
893.6118 245.779269 l
894.352095 234.999044 l
895.092389 254.546364 l
895.832684 261.84877 l
896.572978 292.062781 l
897.313273 194.940641 l
898.053567 303.412124 l
898.793862 260.183493 l
899.534156 253.961649 l
900.274451 262.199163 l
901.014745 243.635194 l
901.75504 264.564139 l
902.495334 247.86422 l
903.235629 227.013262 l
903.975923 245.793778 l
904.716218 273.787543 l
905.456512 239.863204 l
906.196807 212.911189 l
906.937101 254.602224 l
907.677396 222.029765 l
908.41769 197.670519 l
909.157985 274.660625 l
909.898279 321.361998 l
910.638574 268.628487 l
911.378868 234.014968 l
912.119163 258.316904 l
912.859457 224.637042 l
913.599752 251.164304 l
914.340046 253.224952 l
915.080341 264.215196 l
915.820635 251.400801 l
916.56093 263.701575 l
917.301224 231.295971 l
918.041519 247.757216 l
918.781813 201.286537 l
920.262402 286.66614 l
921.002697 275.111494 l
921.742991 288.891828 l
922.483286 226.923306 l
923.22358 253.617059 l
923.963875 203.368223 l
924.704169 239.732985 l
925.444464 224.45713 l
926.184758 267.91319 l
926.925053 210.349253 l
927.665347 211.102636 l
928.405641 176.290706 l
929.145936 209.522963 l
929.88623 233.090741 l
930.626525 262.148744 l
931.366819 214.40671 l
932.107114 271.347483 l
932.847408 274.86883 l
933.587703 244.98236 l
934.327997 270.700017 l
935.068292 231.073983 l
936.548881 275.448104 l
937.289175 222.931503 l
938.02947 290.243346 l
938.769764 233.190491 l
939.510059 235.392965 l
940.250353 312.827048 l
940.990648 253.7023 l
941.730942 306.135836 l
942.471237 238.395613 l
943.211531 233.646075 l
943.951826 245.636718 l
944.69212 236.907347 l
945.432415 236.65888 l
946.172709 221.400435 l
946.913004 239.561778 l
947.653298 241.666316 l
948.393593 300.903147 l
949.133887 250.773285 l
949.874182 211.412041 l
950.614476 215.81046 l
951.354771 272.694648 l
952.095065 267.881633 l
952.83536 236.530112 l
953.575654 241.130932 l
954.315949 268.519669 l
955.056243 202.961244 l
955.796538 245.586662 l
956.536832 226.979166 l
957.277127 238.187771 l
958.017421 247.16706 l
958.757716 228.178702 l
959.49801 241.278562 l
960.238305 211.923848 l
960.978599 220.319874 l
961.718894 222.9072 l
962.459188 303.973262 l
963.199483 244.521697 l
963.939777 286.99876 l
964.680072 279.922695 l
965.420366 231.969191 l
966.160661 237.472112 l
966.900955 264.776333 l
967.64125 246.371601 l
968.381544 234.084974 l
969.121839 239.780139 l
969.862133 255.475306 l
970.602428 234.422672 l
971.342722 231.397535 l
972.083017 238.176526 l
972.823311 268.831976 l
973.563606 203.440043 l
974.3039 215.223569 l
975.044195 223.262672 l
976.524784 276.651992 l
977.265078 237.412987 l
978.005373 214.213014 l
978.745667 238.593662 l
979.485962 230.529531 l
980.226256 206.4572 l
980.966551 245.499607 l
981.706845 222.964511 l
982.44714 215.055627 l
983.187434 228.794248 l
983.927729 291.296341 l
984.668023 255.852904 l
985.408318 242.159624 l
986.148612 249.144644 l
986.888907 270.239354 l
987.629201 217.773172 l
988.369496 210.98874 l
989.10979 173.138977 l
989.850085 192.497679 l
990.590379 177.428941 l
991.330674 262.216211 l
992.070968 220.664101 l
992.811263 267.443097 l
993.551557 284.177112 l
994.291852 233.504249 l
995.032146 276.880873 l
995.772441 258.612163 l
996.512735 225.309174 l
997.25303 222.762835 l
997.993324 247.613939 l
998.733619 200.899508 l
999.473913 260.216501 l
1000.214208 257.918267 l
1000.954502 216.669396 l
1001.694797 241.658336 l
1002.435091 283.268483 l
1003.175386 203.153852 l
1003.91568 291.768248 l
1004.655975 224.412877 l
1005.396269 273.805679 l
1006.136564 216.653436 l
1006.876858 228.414111 l
1007.617153 257.600882 l
1008.357447 240.682602 l
1009.097742 228.354987 l
1009.838036 228.808757 l
1010.578331 260.652861 l
1011.318625 214.489774 l
1012.05892 217.807631 l
1012.799214 263.731319 l
1013.539509 224.74985 l
1014.279803 228.362966 l
1015.020098 255.256945 l
1015.760392 241.325716 l
1016.500687 261.112435 l
1017.240981 269.431925 l
1017.981276 183.357702 l
1019.461865 275.741187 l
1020.202159 235.253678 l
1020.942454 208.329593 l
1021.682748 245.581946 l
1022.423043 222.760296 l
1023.163337 216.507258 l
1023.903632 199.439897 l
1024.643926 195.919276 l
1025.384221 275.428516 l
1026.124515 204.907634 l
1026.86481 214.647197 l
1027.605104 254.486514 l
1028.345399 228.723516 l
1029.085693 240.938324 l
1029.825988 209.063026 l
1030.566282 274.898211 l
1031.306577 247.083996 l
1032.046871 258.713363 l
1032.787166 242.340261 l
1033.52746 234.429926 l
1034.267755 208.06045 l
1035.008049 236.776766 l
1035.748344 228.680715 l
1036.488638 205.384981 l
1037.228933 243.946776 l
1038.709522 203.985583 l
1039.449816 265.864875 l
1040.190111 240.674985 l
1040.930405 195.000128 l
1042.410994 223.930088 l
1043.151289 244.423761 l
1043.891583 233.697219 l
1044.631878 167.814155 l
1045.372172 216.426007 l
1046.852761 264.525327 l
1047.593056 212.308338 l
1048.33335 255.519196 l
1049.073645 225.088274 l
1049.813939 295.046931 l
1050.554234 239.223717 l
1051.294528 267.80002 l
1052.034823 256.078882 l
1052.775117 223.715717 l
1053.515412 264.492682 l
1054.255706 243.026902 l
1054.996001 247.867485 l
1055.736295 233.855005 l
1056.47659 253.759611 l
1057.216884 255.982035 l
1057.957179 239.811334 l
1058.697473 220.717059 l
1059.437768 257.71369 l
1060.178062 236.23848 l
1060.918357 242.07801 l
1061.658651 245.283785 l
1062.398946 237.446721 l
1063.13924 226.380305 l
1063.879535 271.059478 l
1064.619829 252.35187 l
1065.360124 252.75631 l
1066.100418 215.211599 l
1066.840713 242.834295 l
1067.581007 212.857868 l
1068.321302 208.42753 l
1069.061596 243.962373 l
1069.801891 222.597795 l
1070.542185 230.477661 l
1071.28248 272.135687 l
1072.022774 223.631565 l
1072.763069 263.016748 l
1072.763069 263.016748 l
stroke
grestore
0.000 0.750 0.750 setrgbcolor
gsave
1036 725.5 118.5 91.95 clipbox
133.329351 493.987067 m
134.069645 694.469516 l
134.80994 519.726125 l
135.550234 484.784701 l
136.290529 606.620835 l
137.030823 530.535368 l
137.771118 520.690977 l
138.511412 468.345946 l
139.251707 431.49767 l
139.992001 492.071872 l
140.732296 451.409167 l
141.47259 535.667945 l
142.212885 509.631452 l
142.953179 538.011157 l
143.693474 493.355923 l
144.433768 568.864656 l
145.174063 521.858955 l
145.914357 448.809145 l
146.654652 462.923188 l
147.394946 547.41665 l
148.135241 488.582445 l
148.875535 488.24511 l
149.61583 631.130251 l
150.356124 510.418568 l
151.096419 508.488864 l
151.836713 545.414401 l
152.577008 420.803773 l
153.317302 620.948524 l
154.057597 445.15504 l
154.797891 660.739598 l
155.538186 483.471632 l
156.27848 569.756962 l
157.018775 463.615995 l
157.759069 556.365108 l
158.499364 478.509536 l
159.239658 483.718286 l
159.979953 458.534199 l
160.720247 391.74178 l
161.460542 524.749884 l
162.200836 461.856772 l
162.941131 538.903464 l
163.681425 523.701605 l
164.42172 431.633329 l
165.162014 487.497894 l
165.902309 599.235728 l
166.642603 472.582589 l
167.382898 579.753699 l
168.123192 548.697074 l
169.603781 323.992126 l
170.344076 476.064761 l
171.08437 441.667064 l
171.824665 745.73725 l
172.564959 440.927465 l
173.305254 462.865151 l
174.045548 589.438491 l
174.785843 416.269332 l
175.526137 499.888624 l
176.266432 516.613933 l
177.006726 476.050252 l
177.747021 420.155944 l
178.487315 435.846033 l
179.22761 466.622996 l
179.967904 510.110251 l
180.708199 420.016657 l
181.448493 410.064536 l
182.188788 570.982977 l
183.669377 454.779982 l
184.409671 439.377898 l
185.149966 390.954301 l
185.89026 449.36593 l
186.630555 401.068561 l
187.370849 466.169588 l
188.111144 432.232916 l
188.851438 425.348008 l
189.591733 390.093915 l
191.072322 513.117252 l
191.812616 496.486251 l
192.552911 453.973642 l
193.293205 571.657648 l
194.0335 431.589077 l
194.773794 445.407135 l
195.514089 488.317655 l
196.254383 518.880973 l
196.994678 543.437543 l
197.734972 588.94881 l
198.475267 437.968707 l
199.215561 482.397962 l
199.955856 567.011124 l
200.69615 561.229267 l
201.436445 433.896379 l
202.176739 444.497417 l
202.917034 505.80469 l
203.657328 492.728407 l
204.397623 465.139445 l
205.137917 447.93171 l
205.878212 516.43257 l
206.618506 446.624444 l
207.358801 452.160373 l
208.099095 478.121419 l
208.83939 468.306046 l
209.579684 395.232658 l
210.319979 535.642554 l
211.060273 467.156203 l
211.800568 606.312518 l
212.540862 430.988402 l
213.281157 440.357259 l
214.021451 446.235239 l
214.761746 486.78695 l
215.50204 450.626766 l
216.242335 449.95935 l
216.982629 471.577837 l
217.722924 419.859234 l
218.463218 596.576944 l
219.203513 430.180248 l
219.943807 578.578466 l
220.684102 453.347939 l
221.424396 493.424841 l
222.904985 398.408327 l
223.64528 486.260997 l
224.385574 431.292367 l
225.125869 431.949989 l
225.866163 426.17176 l
226.606458 459.310434 l
227.346752 455.904434 l
228.087047 515.572909 l
228.827341 461.240138 l
229.567636 418.818935 l
230.30793 423.069724 l
231.048225 471.556073 l
231.788519 404.602966 l
232.528814 481.284392 l
233.269108 407.402125 l
234.009403 420.084124 l
234.749697 398.044149 l
235.489992 551.214394 l
236.230286 476.376706 l
236.970581 464.515556 l
237.710875 557.29006 l
238.45117 453.619258 l
239.191464 491.219466 l
239.931759 417.490631 l
240.672053 456.640768 l
241.412348 423.075165 l
242.152642 457.07604 l
242.892937 410.477318 l
243.633231 413.084232 l
244.373526 361.364541 l
245.854115 534.801029 l
246.594409 425.39081 l
247.334704 516.349143 l
248.074998 389.449713 l
248.815293 480.25425 l
249.555587 453.549252 l
250.295882 375.108241 l
251.036176 444.344347 l
251.776471 403.635575 l
252.516765 397.747077 l
253.25706 491.190447 l
253.997354 398.053943 l
254.737649 486.993704 l
255.477943 464.624374 l
256.218238 431.244124 l
256.958532 468.244382 l
257.698827 797.186347 l
258.439121 412.078392 l
259.179416 441.19951 l
259.91971 552.070428 l
260.660005 435.558753 l
261.400299 410.644173 l
262.140594 488.288637 l
262.880888 448.12468 l
263.621183 474.203975 l
264.361477 524.111486 l
265.101771 448.972734 l
265.842066 484.026603 l
266.58236 453.845962 l
267.322655 481.491146 l
268.062949 391.527409 l
268.803244 391.408435 l
269.543538 482.263753 l
270.283833 417.121013 l
271.024127 425.63565 l
271.764422 443.457481 l
272.504716 479.213225 l
273.245011 445.309924 l
273.985305 527.074959 l
274.7256 518.358647 l
275.465894 486.645487 l
276.206189 467.809111 l
276.946483 513.236951 l
277.686778 461.138574 l
278.427072 397.615044 l
279.167367 427.467781 l
279.907661 503.214824 l
280.647956 494.219212 l
281.38825 403.006245 l
282.128545 445.076329 l
282.868839 514.361403 l
283.609134 391.852774 l
284.349428 383.023291 l
285.089723 543.034916 l
285.830017 470.812484 l
286.570312 361.902827 l
287.310606 470.60573 l
288.050901 409.354681 l
288.791195 446.156527 l
289.53149 443.276843 l
290.271784 546.473562 l
291.012079 430.819009 l
291.752373 521.231439 l
292.492668 494.324403 l
293.232962 429.521174 l
293.973257 376.717294 l
294.713551 539.708716 l
295.453846 444.919631 l
296.19414 503.258351 l
296.934435 442.697207 l
297.674729 466.024497 l
298.415024 534.017541 l
299.155318 459.491797 l
300.635907 404.275062 l
301.376202 604.317523 l
302.116496 409.056157 l
302.856791 446.418053 l
303.597085 475.600471 l
304.33738 463.46365 l
305.077674 540.430542 l
305.817969 521.960519 l
306.558263 434.929786 l
307.298558 444.383884 l
308.038852 529.701098 l
308.779147 756.967256 l
309.519441 472.97796 l
310.259736 434.787235 l
311.00003 418.339411 l
311.740325 484.49452 l
312.480619 422.019632 l
313.220914 481.251747 l
313.961208 556.48118 l
314.701503 392.224569 l
315.441797 453.387113 l
316.182092 438.665141 l
316.922386 419.493969 l
317.662681 370.904968 l
318.402975 490.214714 l
319.883564 414.660641 l
320.623859 442.598545 l
321.364153 437.000953 l
322.104448 444.387149 l
322.844742 512.652962 l
323.585037 481.063129 l
324.325331 493.152797 l
325.065626 458.900553 l
325.80592 441.941648 l
326.546215 417.962901 l
327.286509 428.632858 l
328.026804 463.978721 l
328.767098 519.06959 l
329.507393 410.076869 l
330.247687 411.00835 l
330.987982 485.593581 l
331.728276 427.508406 l
332.468571 521.376529 l
333.208865 519.352517 l
333.94916 474.124175 l
335.429749 407.328854 l
336.170043 411.206761 l
336.910338 466.126061 l
337.650632 477.29803 l
338.390927 395.803952 l
339.131221 442.260484 l
339.871516 356.548987 l
340.61181 528.964763 l
341.352105 486.028852 l
342.092399 432.94386 l
342.832694 417.651319 l
343.572988 494.560175 l
344.313283 436.67994 l
345.053577 435.714363 l
345.793872 479.822605 l
346.534166 472.053008 l
347.274461 533.705596 l
348.014755 461.802363 l
348.75505 416.554797 l
349.495344 484.955182 l
350.975933 437.21206 l
351.716228 450.351457 l
352.456522 495.067992 l
353.196817 385.187679 l
353.937111 406.519612 l
354.677406 433.528574 l
355.4177 480.232486 l
356.157995 387.483736 l
356.898289 466.924059 l
357.638584 446.175389 l
358.378878 386.131855 l
359.119173 488.321282 l
359.859467 484.472757 l
360.599762 446.328822 l
361.340056 426.744867 l
362.080351 497.019459 l
362.820645 366.003811 l
364.301234 513.860841 l
365.041529 408.32345 l
365.781823 458.1352 l
366.522118 372.223841 l
367.262412 437.04847 l
368.002707 489.536416 l
368.743001 409.487438 l
369.483296 426.225443 l
370.22359 406.215285 l
370.963885 449.99925 l
371.704179 502.191936 l
372.444474 451.604676 l
373.184768 483.772695 l
373.925063 415.032073 l
374.665357 422.873127 l
375.405652 393.609095 l
376.145946 438.148982 l
376.886241 473.373332 l
377.626535 445.69115 l
378.36683 456.865658 l
379.107124 423.613088 l
379.847419 379.301356 l
380.587713 444.471301 l
381.328008 382.685955 l
382.068302 453.481059 l
382.808597 481.16832 l
383.548891 421.339157 l
384.289186 464.210866 l
385.02948 388.183435 l
385.769775 476.282397 l
386.510069 463.148078 l
387.250364 520.462459 l
387.990658 458.994862 l
388.730953 480.446495 l
389.471247 494.117649 l
390.211542 436.005995 l
390.951836 420.446488 l
391.692131 507.821448 l
392.432425 374.575396 l
393.17272 387.095619 l
393.913014 479.162444 l
394.653309 486.485887 l
395.393603 551.762111 l
396.133898 516.893232 l
396.874192 419.564338 l
397.614487 467.529811 l
398.354781 395.326604 l
399.095076 357.968335 l
399.83537 395.553308 l
400.575665 422.005848 l
401.315959 462.857897 l
402.056254 418.673844 l
402.796548 390.019556 l
403.536843 368.781569 l
404.277137 487.305649 l
405.017432 457.264657 l
405.757726 380.456277 l
406.498021 429.00574 l
407.238315 345.118756 l
407.97861 510.313378 l
408.718904 412.823069 l
409.459199 395.003052 l
410.199493 428.770331 l
410.939788 412.577866 l
411.680082 360.694949 l
412.420377 397.865325 l
413.160671 470.834248 l
414.64126 366.523597 l
415.381555 438.337962 l
416.121849 424.851073 l
416.862144 407.561362 l
417.602438 400.859631 l
418.342733 455.443771 l
419.083027 312.119732 l
419.823322 377.923359 l
420.563616 377.009652 l
421.303911 435.617878 l
422.044205 519.620934 l
422.7845 526.443816 l
423.524794 407.194283 l
424.265089 452.414644 l
425.005383 519.969151 l
425.745678 321.926037 l
426.485972 446.287472 l
427.226267 368.816753 l
427.966561 395.196023 l
428.706856 517.16165 l
429.44715 449.096787 l
430.187444 418.968378 l
431.668033 501.923518 l
432.408328 386.456858 l
433.148622 367.74272 l
433.888917 400.586498 l
434.629211 374.528604 l
435.369506 431.504924 l
436.1098 462.375471 l
436.850095 419.304626 l
437.590389 471.196974 l
438.330684 445.338217 l
439.070978 440.387366 l
439.811273 447.546495 l
440.551567 569.318063 l
441.291862 498.30351 l
442.032156 397.237809 l
442.772451 516.824314 l
443.512745 481.117538 l
444.25304 480.087396 l
444.993334 422.813277 l
445.733629 430.892642 l
446.473923 442.330128 l
447.214218 473.910167 l
447.954512 511.720756 l
449.435101 387.948026 l
450.175396 403.297514 l
450.91569 476.525423 l
451.655985 418.804426 l
452.396279 413.525308 l
453.136574 421.133491 l
453.876868 416.255186 l
454.617163 428.283552 l
455.357457 388.925573 l
456.097752 475.647626 l
456.838046 328.658962 l
458.318635 445.968635 l
459.05893 363.358085 l
459.799224 383.22279 l
460.539519 410.931452 l
461.279813 433.826735 l
462.020108 430.697858 l
462.760402 416.172121 l
463.500697 440.339123 l
464.240991 424.565245 l
464.981286 445.988222 l
465.72158 427.443841 l
466.461875 481.690646 l
467.202169 449.210683 l
467.942464 440.927465 l
468.682758 369.346696 l
469.423053 425.690422 l
470.163347 418.678923 l
470.903642 452.479572 l
471.643936 535.363255 l
472.384231 444.452077 l
473.124525 483.27576 l
473.86482 464.718683 l
474.605114 483.108906 l
475.345409 434.658829 l
476.085703 427.833772 l
476.825998 423.168386 l
477.566292 435.20836 l
478.306587 380.992386 l
479.046881 424.453888 l
479.787176 446.114814 l
480.52747 398.046326 l
481.267765 377.488813 l
482.008059 436.04263 l
482.748354 399.206324 l
483.488648 408.077159 l
484.228943 510.193678 l
484.969237 337.959265 l
485.709532 434.052351 l
486.449826 418.354283 l
487.190121 399.253116 l
487.930415 396.419136 l
489.411004 501.223457 l
490.151299 472.121926 l
490.891593 422.943858 l
491.631888 496.874368 l
492.372182 440.553132 l
493.112477 472.557198 l
493.852771 443.524585 l
495.33336 423.057754 l
496.073655 404.151009 l
496.813949 510.683358 l
497.554244 479.351061 l
498.294538 440.248079 l
499.034833 353.692155 l
499.775127 407.409742 l
500.515422 451.553169 l
501.255716 417.282426 l
501.996011 401.546997 l
502.736305 438.983252 l
503.4766 371.864379 l
504.216894 474.138684 l
504.957189 477.501157 l
505.697483 452.915206 l
506.437778 454.596443 l
507.178072 444.312064 l
507.918367 372.591283 l
509.398956 456.183733 l
510.13925 462.183226 l
510.879545 371.382679 l
511.619839 510.966285 l
513.100428 397.352793 l
513.840723 442.340284 l
514.581017 473.899285 l
515.321312 427.948756 l
516.061606 433.325085 l
516.801901 500.135278 l
517.542195 437.471046 l
518.28249 461.523064 l
519.022784 443.655167 l
519.763079 429.042376 l
520.503373 501.426583 l
521.243668 327.294386 l
521.983962 361.883965 l
522.724257 381.51435 l
523.464551 393.189058 l
524.204846 306.985341 l
524.94514 481.676137 l
525.685435 441.844437 l
526.425729 537.673822 l
527.166024 429.784151 l
527.906318 460.634385 l
528.646613 452.848828 l
529.386907 352.086003 l
530.127202 443.145899 l
530.867496 373.756722 l
531.607791 471.356574 l
532.348085 416.36618 l
533.08838 433.329075 l
533.828674 577.410487 l
534.568969 497.244349 l
535.309263 454.262372 l
536.049558 475.034618 l
536.789852 410.053654 l
537.530147 423.566659 l
538.270441 374.836921 l
539.010736 515.075974 l
539.75103 434.281957 l
540.491325 485.644362 l
541.231619 489.750424 l
541.971914 430.534994 l
542.712208 445.818829 l
543.452503 471.8789 l
544.192797 432.442209 l
544.933092 404.903666 l
545.673386 469.38697 l
546.413681 460.086668 l
547.153975 517.644076 l
547.89427 450.334772 l
548.634564 432.862609 l
549.374859 387.22221 l
550.115153 386.068378 l
550.855448 387.051729 l
551.595742 396.794557 l
552.336037 409.150828 l
553.076331 394.052347 l
553.816626 362.274622 l
554.55692 450.345653 l
555.297215 519.845824 l
556.037509 500.697504 l
556.777804 509.678607 l
558.258393 363.540174 l
558.998687 417.900875 l
559.738982 445.69115 l
560.479276 368.913238 l
561.219571 476.532678 l
561.959865 386.531217 l
562.70016 362.435309 l
563.440454 406.65636 l
564.180749 404.824955 l
564.921043 404.425593 l
565.661338 464.058521 l
566.401632 375.602274 l
567.141927 487.153304 l
567.882221 395.28743 l
568.622516 443.206475 l
569.36281 403.876788 l
570.103105 405.223228 l
570.843399 387.058258 l
571.583694 372.799125 l
572.323988 455.059282 l
573.064283 473.434995 l
573.804577 459.600615 l
574.544872 482.85137 l
575.285166 437.418088 l
576.025461 400.428349 l
576.765755 406.197874 l
577.50605 464.838382 l
578.246344 432.570251 l
578.986639 410.822634 l
579.726933 340.068518 l
580.467228 401.895577 l
581.207522 327.767381 l
581.947817 359.570134 l
582.688111 466.002734 l
583.428406 407.685777 l
584.1687 393.514423 l
584.908995 406.687191 l
585.649289 432.752703 l
586.389584 381.820128 l
587.129878 439.30354 l
587.870173 478.919417 l
588.610467 452.827427 l
589.350762 464.384974 l
590.091056 436.283481 l
590.831351 541.939483 l
591.571645 484.425602 l
592.31194 488.596954 l
593.052234 414.640691 l
593.792529 414.584831 l
594.532823 420.17408 l
596.013412 485.967189 l
596.753706 422.495529 l
597.494001 372.917011 l
598.234295 357.136604 l
598.97459 552.230028 l
599.714884 517.97053 l
600.455179 443.439708 l
601.195473 454.029864 l
601.935768 489.605334 l
602.676062 401.508185 l
603.416357 442.404487 l
604.156651 444.576129 l
604.896946 471.773709 l
605.63724 397.769928 l
606.377535 407.163451 l
607.117829 509.09099 l
607.858124 392.77156 l
608.598418 380.932537 l
609.338713 541.613029 l
610.079007 600.472625 l
610.819302 442.765762 l
611.559596 369.187097 l
612.299891 441.555344 l
613.040185 399.277056 l
614.520774 423.332701 l
615.261069 367.515291 l
616.001363 451.909366 l
616.741658 443.576455 l
617.481952 364.986001 l
618.222247 390.784545 l
618.962541 523.966395 l
619.702836 417.232007 l
620.44313 349.291197 l
621.183425 382.747982 l
621.923719 474.679147 l
622.664014 453.197045 l
623.404308 367.590013 l
624.144603 369.40836 l
625.625192 457.137703 l
626.365486 468.603481 l
627.105781 456.862031 l
627.846075 377.793141 l
628.58637 476.27877 l
629.326664 383.675473 l
630.066959 450.543702 l
630.807253 465.241009 l
631.547548 497.592566 l
632.287842 453.669677 l
633.028137 417.19646 l
633.768431 411.143647 l
634.508726 443.0262 l
635.24902 521.438193 l
635.989315 364.494506 l
636.729609 422.750163 l
637.469904 353.955494 l
638.210198 446.598691 l
638.950493 479.561443 l
639.690787 423.488311 l
640.431082 465.299045 l
641.171376 402.381993 l
641.911671 373.798436 l
642.651965 566.340081 l
643.39226 423.173464 l
644.132554 500.501631 l
644.872849 394.860501 l
645.613143 445.968635 l
646.353438 376.806162 l
647.093732 418.448229 l
647.834027 421.210027 l
648.574321 469.194725 l
649.314616 482.096899 l
650.05491 343.721534 l
650.795205 383.7589 l
651.535499 516.240325 l
652.275794 460.064904 l
653.756383 429.204151 l
654.496677 422.520557 l
655.236972 509.319508 l
655.977266 394.3389 l
656.717561 499.333653 l
657.457855 513.556151 l
658.19815 438.514973 l
658.938444 449.787418 l
659.678739 388.369876 l
660.419033 410.679357 l
661.159328 392.321417 l
661.899622 459.071034 l
662.639917 675.799994 l
663.380211 404.907294 l
664.120506 424.934138 l
664.8608 418.185978 l
665.601095 329.566141 l
666.341389 429.490343 l
667.081684 458.780853 l
667.821978 415.618601 l
668.562273 495.078873 l
669.302567 402.462156 l
670.042862 442.083474 l
670.783156 347.360405 l
671.523451 408.419572 l
672.263745 437.473948 l
673.00404 454.521358 l
673.744334 459.176225 l
674.484629 406.525778 l
675.224923 479.528797 l
675.965218 416.184817 l
676.705512 491.277502 l
677.445807 488.596954 l
678.186101 423.310212 l
678.926396 396.006353 l
679.66669 456.361469 l
680.406985 461.519437 l
681.147279 504.836211 l
681.887574 374.46948 l
682.627868 397.554106 l
683.368163 388.757631 l
684.108457 412.596365 l
684.848752 420.467163 l
685.589046 484.802837 l
686.329341 450.710193 l
687.069635 411.243034 l
687.80993 355.420908 l
688.550224 334.162971 l
689.290519 383.439701 l
690.030813 445.650524 l
690.771108 467.997728 l
691.511402 443.846686 l
692.251697 521.060958 l
692.991991 428.946979 l
693.732286 417.970881 l
694.47258 431.550265 l
695.212875 515.5185 l
695.953169 464.725937 l
696.693464 455.850025 l
697.433758 477.374203 l
698.174053 692.347567 l
698.914347 381.048246 l
700.394936 435.299404 l
701.135231 468.2335 l
701.875525 460.20274 l
702.61582 456.981731 l
703.356114 435.263494 l
704.096409 488.02022 l
704.836703 443.405249 l
705.576998 423.268136 l
706.317292 444.566698 l
707.057587 408.319097 l
707.797881 403.51914 l
708.538176 501.129148 l
709.27847 357.418079 l
710.018765 392.383806 l
710.759059 398.518595 l
711.499354 401.31848 l
712.239648 418.333607 l
712.979943 399.821508 l
713.720237 331.949615 l
714.460532 386.708953 l
715.200826 493.675123 l
715.941121 449.63471 l
716.681415 503.131397 l
717.42171 434.0908 l
718.162004 405.121302 l
718.902299 333.381659 l
719.642593 414.514099 l
720.382888 355.683159 l
721.123182 427.102878 l
721.863477 434.192726 l
722.603771 546.734724 l
723.344066 374.287754 l
724.08436 447.562455 l
724.824655 437.924454 l
725.564949 375.635282 l
726.305244 366.216368 l
727.045538 392.709171 l
727.785833 410.659044 l
728.526127 414.256564 l
729.266422 418.976721 l
730.006716 439.224103 l
731.487305 365.131454 l
732.2276 404.174224 l
732.967894 596.928789 l
733.708189 453.823473 l
734.448483 436.348771 l
735.188778 402.771198 l
735.929072 452.950754 l
736.669367 465.447763 l
737.409661 340.785628 l
738.149956 429.800111 l
738.89025 415.637825 l
739.630545 373.60474 l
740.370839 338.249808 l
741.111134 330.859986 l
741.851428 395.718348 l
742.591723 360.826255 l
743.332017 446.339341 l
744.072312 564.337831 l
744.812606 461.744327 l
745.552901 420.194393 l
746.293195 499.670988 l
747.03349 458.526945 l
747.773784 523.995413 l
748.514079 500.385559 l
749.254373 492.768307 l
749.994668 475.114418 l
750.734962 380.036603 l
751.475257 426.726731 l
752.215551 431.487513 l
752.955846 348.712286 l
753.69614 482.006218 l
754.436435 565.977354 l
755.176729 346.778592 l
755.917024 394.54638 l
756.657318 428.325266 l
757.397613 354.262723 l
758.137907 458.708308 l
758.878202 457.928447 l
759.618496 369.685482 l
760.358791 469.423243 l
761.099085 406.639312 l
761.839379 437.842841 l
762.579674 461.573846 l
763.319968 452.983399 l
764.060263 317.884178 l
765.540852 446.646208 l
766.281146 439.734458 l
767.021441 458.265782 l
767.761735 422.783896 l
768.50203 425.240279 l
769.242324 370.052924 l
769.982619 460.148331 l
770.722913 374.914182 l
771.463208 433.263421 l
772.203502 456.473914 l
772.943797 432.962359 l
773.684091 347.695564 l
774.424386 364.878634 l
775.16468 389.056155 l
775.904975 390.200919 l
776.645269 429.235346 l
777.385564 420.87922 l
778.125858 424.889885 l
778.866153 442.851003 l
779.606447 377.325586 l
780.346742 427.097437 l
781.087036 382.325768 l
781.827331 305.714711 l
782.567625 493.653359 l
783.30792 344.232253 l
784.048214 431.457044 l
784.788509 366.999857 l
785.528803 487.864247 l
786.269098 372.129895 l
787.009392 479.064508 l
787.749687 461.570218 l
788.489981 462.716434 l
789.230276 372.715335 l
789.97057 393.180353 l
790.710865 370.275638 l
791.451159 394.58229 l
792.191454 460.340576 l
792.931748 399.463135 l
793.672043 408.810228 l
794.412337 396.320111 l
795.152632 521.21693 l
795.892926 426.54029 l
796.633221 395.371582 l
797.373515 394.70344 l
798.11381 415.475687 l
798.854104 391.920241 l
799.594399 421.910451 l
800.334693 373.878236 l
801.074988 466.575841 l
801.815282 389.238243 l
802.555577 439.801563 l
803.295871 433.258343 l
804.036166 433.301145 l
804.77646 441.430929 l
805.516755 478.128674 l
806.257049 419.598071 l
806.997344 422.031239 l
807.737638 433.352652 l
808.477933 425.926194 l
809.218227 399.199795 l
809.958522 439.90494 l
810.698816 399.267625 l
811.439111 407.064427 l
812.179405 396.32664 l
812.9197 363.568104 l
813.659994 430.685526 l
814.400289 391.579641 l
815.140583 476.674141 l
815.880878 404.551459 l
816.621172 464.943573 l
817.361467 547.648795 l
818.101761 363.870255 l
818.842056 451.783138 l
819.58235 386.612105 l
820.322645 439.747879 l
821.062939 527.386904 l
821.803234 377.233091 l
822.543528 441.583637 l
823.283823 336.12786 l
824.024117 427.221127 l
824.764412 418.756546 l
825.504706 459.499051 l
826.245001 402.325045 l
826.985295 418.551243 l
827.72559 402.391424 l
828.465884 470.15595 l
829.206179 369.226271 l
830.686768 464.936318 l
831.427062 496.936032 l
832.167357 436.911722 l
832.907651 452.454907 l
833.647946 528.467828 l
834.38824 390.157029 l
835.128535 437.073136 l
835.868829 371.214736 l
836.609124 435.646533 l
837.349418 439.063778 l
838.089713 471.498037 l
838.830007 416.843165 l
839.570302 420.028627 l
840.310596 410.6079 l
841.050891 505.655972 l
841.791185 418.543988 l
842.53148 373.420475 l
843.271774 421.443622 l
844.012069 414.275788 l
844.752363 441.029391 l
845.492658 375.89318 l
846.232952 343.119409 l
846.973247 389.390588 l
847.713541 410.1875 l
848.453836 407.737284 l
849.19413 418.86355 l
849.934425 364.606589 l
850.674719 510.940894 l
851.415014 346.606297 l
852.155308 423.777766 l
852.895603 421.265887 l
853.635897 419.332918 l
854.376192 387.854442 l
855.116486 409.869752 l
855.856781 405.684979 l
856.597075 432.682697 l
857.33737 467.112676 l
858.077664 424.079192 l
858.817959 373.415034 l
859.558253 458.505181 l
860.298548 390.378655 l
861.038842 419.855244 l
861.779137 394.303716 l
862.519431 422.692852 l
863.259726 390.887197 l
864.00002 385.3821 l
864.740315 461.932945 l
866.220904 365.852554 l
866.961198 436.656726 l
867.701493 404.806818 l
868.441787 424.350874 l
869.182082 358.176903 l
869.922376 406.570394 l
870.662671 403.380216 l
871.402965 472.270644 l
872.14326 471.447255 l
872.883554 515.075974 l
873.623849 430.104438 l
874.364143 402.169798 l
875.104438 387.459071 l
875.844732 433.911976 l
876.585027 372.651133 l
877.325321 446.748134 l
878.065616 402.291312 l
878.80591 466.735441 l
879.546205 425.155401 l
880.286499 473.460386 l
881.026794 499.03259 l
881.767088 383.032722 l
882.507383 353.124125 l
883.247677 428.846503 l
883.987972 442.238358 l
884.728266 453.03672 l
885.468561 456.666159 l
886.208855 490.570185 l
886.94915 409.638695 l
887.689444 412.006935 l
888.429739 373.492658 l
889.170033 445.121307 l
889.910328 448.127219 l
890.650622 462.564089 l
891.390917 415.690421 l
892.131211 425.109697 l
892.871506 481.610846 l
894.352095 332.774092 l
895.092389 476.975204 l
895.832684 370.109872 l
896.572978 448.875886 l
897.313273 475.154318 l
898.053567 449.372096 l
898.793862 412.611963 l
899.534156 412.098342 l
900.274451 411.176292 l
901.014745 366.112991 l
901.75504 413.355189 l
902.495334 404.022241 l
903.235629 360.735574 l
903.975923 423.611275 l
904.716218 327.930245 l
905.456512 470.877775 l
906.196807 422.145861 l
906.937101 402.524545 l
907.677396 392.373649 l
908.41769 419.992355 l
909.157985 345.038231 l
909.898279 360.860352 l
910.638574 414.176401 l
911.378868 446.564595 l
912.119163 496.199698 l
912.859457 362.630819 l
913.599752 537.586767 l
914.340046 328.802239 l
915.080341 420.451929 l
915.820635 336.557328 l
916.56093 359.098953 l
917.301224 437.06044 l
918.041519 369.851611 l
919.522108 448.47725 l
920.262402 357.275891 l
921.002697 513.632323 l
921.742991 408.249454 l
922.483286 476.873641 l
923.22358 386.913168 l
923.963875 768.810269 l
924.704169 335.999092 l
925.444464 420.468977 l
926.184758 393.615624 l
926.925053 405.608806 l
927.665347 439.189281 l
928.405641 363.290618 l
929.145936 466.165961 l
929.88623 363.573182 l
930.626525 435.031349 l
931.366819 398.771053 l
932.107114 458.650272 l
932.847408 412.573151 l
933.587703 466.361833 l
934.327997 498.22371 l
935.068292 407.332119 l
935.808586 434.244959 l
936.548881 442.824524 l
937.289175 393.008058 l
938.02947 443.724085 l
938.769764 440.67936 l
939.510059 375.161924 l
940.250353 474.084276 l
940.990648 387.55737 l
941.730942 402.655126 l
942.471237 328.437699 l
943.211531 344.392578 l
943.951826 429.586828 l
944.69212 463.391104 l
945.432415 505.917135 l
946.172709 414.048722 l
946.913004 470.355449 l
947.653298 406.537385 l
948.393593 469.285407 l
949.133887 464.486538 l
949.874182 391.091412 l
950.614476 396.41841 l
951.354771 396.403176 l
952.095065 417.278074 l
952.83536 497.023086 l
953.575654 383.341765 l
954.315949 417.097073 l
955.056243 439.647767 l
955.796538 407.13407 l
956.536832 399.827675 l
957.277127 353.281186 l
958.017421 381.671773 l
958.757716 435.19639 l
959.49801 366.03972 l
960.238305 365.676994 l
960.978599 416.035736 l
961.718894 379.49614 l
962.459188 402.419717 l
963.199483 435.039692 l
963.939777 368.438067 l
964.680072 415.952309 l
965.420366 449.002115 l
966.160661 398.234581 l
966.900955 406.901563 l
967.64125 323.149513 l
968.381544 409.839283 l
969.121839 359.472198 l
969.862133 388.113792 l
970.602428 444.067587 l
971.342722 359.623455 l
972.083017 400.936529 l
972.823311 366.19533 l
973.563606 374.065765 l
974.3039 413.246008 l
975.044195 385.326966 l
975.784489 404.065406 l
976.524784 410.972077 l
977.265078 393.646456 l
978.005373 477.551939 l
978.745667 437.254862 l
979.485962 478.368073 l
980.226256 439.63217 l
980.966551 424.976214 l
981.706845 376.202223 l
982.44714 363.591681 l
983.187434 442.706275 l
983.927729 443.690351 l
984.668023 373.077336 l
985.408318 424.616027 l
986.148612 400.290513 l
986.888907 426.224718 l
987.629201 342.89343 l
988.369496 473.152069 l
989.10979 372.292759 l
989.850085 400.031527 l
990.590379 362.051182 l
991.330674 405.350545 l
992.070968 423.661331 l
992.811263 329.472558 l
993.551557 432.233641 l
994.291852 377.139145 l
995.032146 415.559114 l
995.772441 420.608989 l
996.512735 421.374342 l
997.25303 435.201105 l
997.993324 384.292107 l
998.733619 388.158407 l
999.473913 418.319824 l
1000.214208 457.961092 l
1000.954502 440.413482 l
1001.694797 392.006208 l
1002.435091 479.855251 l
1003.175386 395.922926 l
1003.91568 334.382058 l
1004.655975 393.42483 l
1005.396269 428.689806 l
1006.136564 340.986941 l
1006.876858 518.786664 l
1007.617153 380.35689 l
1008.357447 441.657271 l
1009.097742 353.747652 l
1009.838036 423.73968 l
1010.578331 386.930941 l
1011.318625 450.192946 l
1012.05892 448.66079 l
1012.799214 497.432967 l
1013.539509 527.470331 l
1014.279803 498.557418 l
1015.020098 359.870472 l
1015.760392 439.202339 l
1016.500687 414.423781 l
1017.240981 319.086616 l
1017.981276 361.170483 l
1018.72157 459.16897 l
1019.461865 446.685745 l
1020.202159 447.990834 l
1020.942454 416.981001 l
1021.682748 425.025182 l
1022.423043 413.463281 l
1023.163337 361.332621 l
1023.903632 356.404259 l
1024.643926 399.879182 l
1025.384221 425.144156 l
1026.124515 464.319684 l
1026.86481 351.387755 l
1027.605104 457.119567 l
1028.345399 434.35559 l
1029.085693 419.190367 l
1029.825988 454.153917 l
1030.566282 445.714001 l
1031.306577 421.719657 l
1032.046871 381.704055 l
1032.787166 395.762601 l
1033.52746 413.433175 l
1034.267755 448.982528 l
1035.008049 357.97305 l
1035.748344 348.24727 l
1036.488638 419.337271 l
1037.228933 351.148718 l
1037.969227 432.271728 l
1038.709522 347.385795 l
1039.449816 407.922274 l
1040.190111 401.537204 l
1040.930405 452.479209 l
1041.6707 380.39679 l
1042.410994 413.897102 l
1043.151289 403.754549 l
1043.891583 385.585589 l
1044.631878 364.157171 l
1045.372172 400.941607 l
1046.112467 354.8663 l
1046.852761 435.986045 l
1047.593056 456.822131 l
1048.33335 460.054023 l
1049.073645 390.678992 l
1049.813939 377.011828 l
1050.554234 415.956662 l
1051.294528 428.475434 l
1052.034823 488.234228 l
1052.775117 411.09758 l
1054.255706 541.747238 l
1054.996001 496.09088 l
1055.736295 411.269513 l
1056.47659 362.299287 l
1057.216884 380.954663 l
1057.957179 391.336615 l
1058.697473 391.364907 l
1059.437768 339.842177 l
1060.178062 403.738589 l
1060.918357 748.816796 l
1061.658651 344.035293 l
1062.398946 459.303179 l
1063.13924 368.022382 l
1064.619829 485.782198 l
1065.360124 377.871489 l
1066.100418 361.015236 l
1067.581007 472.179963 l
1068.321302 361.928218 l
1069.061596 404.781065 l
1069.801891 431.48969 l
1070.542185 442.465062 l
1071.28248 469.738815 l
1072.022774 421.236868 l
1072.763069 447.031423 l
1072.763069 447.031423 l
stroke
grestore
0 setlinejoin
0.000 setgray
gsave
118.523461 91.9485 m
118.523461 817.401083 l
stroke
grestore
gsave
1154.935758 91.9485 m
1154.935758 817.401083 l
stroke
grestore
gsave
118.523461 91.9485 m
1154.935758 91.9485 l
stroke
grestore
gsave
118.523461 817.401083 m
1154.935758 817.401083 l
stroke
grestore
0.500 setlinewidth
1 setlinejoin
0 setlinecap
gsave
/o {
gsave
newpath
translate
0.5 setlinewidth
1 setlinejoin
0 setlinecap
0 0 m
0 4 l

gsave
0.000 setgray
fill
grestore
stroke
grestore
} bind def
118.523 91.9485 o
grestore
gsave
/o {
gsave
newpath
translate
0.5 setlinewidth
1 setlinejoin
0 setlinecap
0 0 m
0 -4 l

gsave
0.000 setgray
fill
grestore
stroke
grestore
} bind def
118.523 817.401 o
grestore
/BitstreamVeraSans-Roman findfont
12.000 scalefont
setfont
gsave
114.703148 78.823500 translate
0.000000 rotate
0.000000 0.000000 m /zero glyphshow
grestore
gsave
/o {
gsave
newpath
translate
0.5 setlinewidth
1 setlinejoin
0 setlinecap
0 0 m
0 4 l

gsave
0.000 setgray
fill
grestore
stroke
grestore
} bind def
266.582 91.9485 o
grestore
gsave
/o {
gsave
newpath
translate
0.5 setlinewidth
1 setlinejoin
0 setlinecap
0 0 m
0 -4 l

gsave
0.000 setgray
fill
grestore
stroke
grestore
} bind def
266.582 817.401 o
grestore
gsave
251.301110 78.823500 translate
0.000000 rotate
0.000000 0.000000 m /two glyphshow
7.634766 0.000000 m /zero glyphshow
15.269531 0.000000 m /zero glyphshow
22.904297 0.000000 m /zero glyphshow
grestore
gsave
/o {
gsave
newpath
translate
0.5 setlinewidth
1 setlinejoin
0 setlinecap
0 0 m
0 4 l

gsave
0.000 setgray
fill
grestore
stroke
grestore
} bind def
414.641 91.9485 o
grestore
gsave
/o {
gsave
newpath
translate
0.5 setlinewidth
1 setlinejoin
0 setlinecap
0 0 m
0 -4 l

gsave
0.000 setgray
fill
grestore
stroke
grestore
} bind def
414.641 817.401 o
grestore
gsave
399.360010 78.823500 translate
0.000000 rotate
0.000000 0.000000 m /four glyphshow
7.634766 0.000000 m /zero glyphshow
15.269531 0.000000 m /zero glyphshow
22.904297 0.000000 m /zero glyphshow
grestore
gsave
/o {
gsave
newpath
translate
0.5 setlinewidth
1 setlinejoin
0 setlinecap
0 0 m
0 4 l

gsave
0.000 setgray
fill
grestore
stroke
grestore
} bind def
562.7 91.9485 o
grestore
gsave
/o {
gsave
newpath
translate
0.5 setlinewidth
1 setlinejoin
0 setlinecap
0 0 m
0 -4 l

gsave
0.000 setgray
fill
grestore
stroke
grestore
} bind def
562.7 817.401 o
grestore
gsave
547.418910 78.823500 translate
0.000000 rotate
0.000000 0.000000 m /six glyphshow
7.634766 0.000000 m /zero glyphshow
15.269531 0.000000 m /zero glyphshow
22.904297 0.000000 m /zero glyphshow
grestore
gsave
/o {
gsave
newpath
translate
0.5 setlinewidth
1 setlinejoin
0 setlinecap
0 0 m
0 4 l

gsave
0.000 setgray
fill
grestore
stroke
grestore
} bind def
710.759 91.9485 o
grestore
gsave
/o {
gsave
newpath
translate
0.5 setlinewidth
1 setlinejoin
0 setlinecap
0 0 m
0 -4 l

gsave
0.000 setgray
fill
grestore
stroke
grestore
} bind def
710.759 817.401 o
grestore
gsave
695.477809 78.823500 translate
0.000000 rotate
0.000000 0.000000 m /eight glyphshow
7.634766 0.000000 m /zero glyphshow
15.269531 0.000000 m /zero glyphshow
22.904297 0.000000 m /zero glyphshow
grestore
gsave
/o {
gsave
newpath
translate
0.5 setlinewidth
1 setlinejoin
0 setlinecap
0 0 m
0 4 l

gsave
0.000 setgray
fill
grestore
stroke
grestore
} bind def
858.818 91.9485 o
grestore
gsave
/o {
gsave
newpath
translate
0.5 setlinewidth
1 setlinejoin
0 setlinecap
0 0 m
0 -4 l

gsave
0.000 setgray
fill
grestore
stroke
grestore
} bind def
858.818 817.401 o
grestore
gsave
839.716396 78.823500 translate
0.000000 rotate
0.000000 0.000000 m /one glyphshow
7.634766 0.000000 m /zero glyphshow
15.269531 0.000000 m /zero glyphshow
22.904297 0.000000 m /zero glyphshow
30.539062 0.000000 m /zero glyphshow
grestore
gsave
/o {
gsave
newpath
translate
0.5 setlinewidth
1 setlinejoin
0 setlinecap
0 0 m
0 4 l

gsave
0.000 setgray
fill
grestore
stroke
grestore
} bind def
1006.88 91.9485 o
grestore
gsave
/o {
gsave
newpath
translate
0.5 setlinewidth
1 setlinejoin
0 setlinecap
0 0 m
0 -4 l

gsave
0.000 setgray
fill
grestore
stroke
grestore
} bind def
1006.88 817.401 o
grestore
gsave
987.775296 78.823500 translate
0.000000 rotate
0.000000 0.000000 m /one glyphshow
7.634766 0.000000 m /two glyphshow
15.269531 0.000000 m /zero glyphshow
22.904297 0.000000 m /zero glyphshow
30.539062 0.000000 m /zero glyphshow
grestore
gsave
/o {
gsave
newpath
translate
0.5 setlinewidth
1 setlinejoin
0 setlinecap
0 0 m
0 4 l

gsave
0.000 setgray
fill
grestore
stroke
grestore
} bind def
1154.94 91.9485 o
grestore
gsave
/o {
gsave
newpath
translate
0.5 setlinewidth
1 setlinejoin
0 setlinecap
0 0 m
0 -4 l

gsave
0.000 setgray
fill
grestore
stroke
grestore
} bind def
1154.94 817.401 o
grestore
gsave
1135.834195 78.823500 translate
0.000000 rotate
0.000000 0.000000 m /one glyphshow
7.634766 0.000000 m /four glyphshow
15.269531 0.000000 m /zero glyphshow
22.904297 0.000000 m /zero glyphshow
30.539062 0.000000 m /zero glyphshow
grestore
gsave
608.971797 62.182875 translate
0.000000 rotate
0.000000 0.000000 m /I glyphshow
3.539062 0.000000 m /t glyphshow
8.244141 0.000000 m /e glyphshow
15.626953 0.000000 m /r glyphshow
20.560547 0.000000 m /a glyphshow
27.914062 0.000000 m /ccedilla glyphshow
34.511719 0.000000 m /otilde glyphshow
41.853516 0.000000 m /e glyphshow
49.236328 0.000000 m /s glyphshow
grestore
gsave
/o {
gsave
newpath
translate
0.5 setlinewidth
1 setlinejoin
0 setlinecap
0 0 m
4 0 l

gsave
0.000 setgray
fill
grestore
stroke
grestore
} bind def
118.523 91.9485 o
grestore
gsave
95.429711 88.636000 translate
0.000000 rotate
0.000000 0.000000 m /zero glyphshow
7.634766 0.000000 m /period glyphshow
11.449219 0.000000 m /zero glyphshow
grestore
gsave
/o {
gsave
newpath
translate
0.5 setlinewidth
1 setlinejoin
0 setlinecap
0 0 m
4 0 l

gsave
0.000 setgray
fill
grestore
stroke
grestore
} bind def
118.523 128.221 o
grestore
gsave
95.429711 124.908629 translate
0.000000 rotate
0.000000 0.000000 m /zero glyphshow
7.634766 0.000000 m /period glyphshow
11.449219 0.000000 m /one glyphshow
grestore
gsave
/o {
gsave
newpath
translate
0.5 setlinewidth
1 setlinejoin
0 setlinecap
0 0 m
4 0 l

gsave
0.000 setgray
fill
grestore
stroke
grestore
} bind def
118.523 164.494 o
grestore
gsave
95.429711 161.181258 translate
0.000000 rotate
0.000000 0.000000 m /zero glyphshow
7.634766 0.000000 m /period glyphshow
11.449219 0.000000 m /two glyphshow
grestore
gsave
/o {
gsave
newpath
translate
0.5 setlinewidth
1 setlinejoin
0 setlinecap
0 0 m
4 0 l

gsave
0.000 setgray
fill
grestore
stroke
grestore
} bind def
118.523 200.766 o
grestore
gsave
95.429711 197.453888 translate
0.000000 rotate
0.000000 0.000000 m /zero glyphshow
7.634766 0.000000 m /period glyphshow
11.449219 0.000000 m /three glyphshow
grestore
gsave
/o {
gsave
newpath
translate
0.5 setlinewidth
1 setlinejoin
0 setlinecap
0 0 m
4 0 l

gsave
0.000 setgray
fill
grestore
stroke
grestore
} bind def
118.523 237.039 o
grestore
gsave
95.429711 233.726517 translate
0.000000 rotate
0.000000 0.000000 m /zero glyphshow
7.634766 0.000000 m /period glyphshow
11.449219 0.000000 m /four glyphshow
grestore
gsave
/o {
gsave
newpath
translate
0.5 setlinewidth
1 setlinejoin
0 setlinecap
0 0 m
4 0 l

gsave
0.000 setgray
fill
grestore
stroke
grestore
} bind def
118.523 273.312 o
grestore
gsave
95.429711 269.999146 translate
0.000000 rotate
0.000000 0.000000 m /zero glyphshow
7.634766 0.000000 m /period glyphshow
11.449219 0.000000 m /five glyphshow
grestore
gsave
/o {
gsave
newpath
translate
0.5 setlinewidth
1 setlinejoin
0 setlinecap
0 0 m
4 0 l

gsave
0.000 setgray
fill
grestore
stroke
grestore
} bind def
118.523 309.584 o
grestore
gsave
95.429711 306.271775 translate
0.000000 rotate
0.000000 0.000000 m /zero glyphshow
7.634766 0.000000 m /period glyphshow
11.449219 0.000000 m /six glyphshow
grestore
gsave
/o {
gsave
newpath
translate
0.5 setlinewidth
1 setlinejoin
0 setlinecap
0 0 m
4 0 l

gsave
0.000 setgray
fill
grestore
stroke
grestore
} bind def
118.523 345.857 o
grestore
gsave
95.429711 342.544404 translate
0.000000 rotate
0.000000 0.000000 m /zero glyphshow
7.634766 0.000000 m /period glyphshow
11.449219 0.000000 m /seven glyphshow
grestore
gsave
/o {
gsave
newpath
translate
0.5 setlinewidth
1 setlinejoin
0 setlinecap
0 0 m
4 0 l

gsave
0.000 setgray
fill
grestore
stroke
grestore
} bind def
118.523 382.13 o
grestore
gsave
95.429711 378.817033 translate
0.000000 rotate
0.000000 0.000000 m /zero glyphshow
7.634766 0.000000 m /period glyphshow
11.449219 0.000000 m /eight glyphshow
grestore
gsave
/o {
gsave
newpath
translate
0.5 setlinewidth
1 setlinejoin
0 setlinecap
0 0 m
4 0 l

gsave
0.000 setgray
fill
grestore
stroke
grestore
} bind def
118.523 418.402 o
grestore
gsave
95.429711 415.089662 translate
0.000000 rotate
0.000000 0.000000 m /zero glyphshow
7.634766 0.000000 m /period glyphshow
11.449219 0.000000 m /nine glyphshow
grestore
gsave
/o {
gsave
newpath
translate
0.5 setlinewidth
1 setlinejoin
0 setlinecap
0 0 m
4 0 l

gsave
0.000 setgray
fill
grestore
stroke
grestore
} bind def
118.523 454.675 o
grestore
gsave
95.429711 451.362292 translate
0.000000 rotate
0.000000 0.000000 m /one glyphshow
7.634766 0.000000 m /period glyphshow
11.449219 0.000000 m /zero glyphshow
grestore
gsave
/o {
gsave
newpath
translate
0.5 setlinewidth
1 setlinejoin
0 setlinecap
0 0 m
4 0 l

gsave
0.000 setgray
fill
grestore
stroke
grestore
} bind def
118.523 490.947 o
grestore
gsave
95.429711 487.634921 translate
0.000000 rotate
0.000000 0.000000 m /one glyphshow
7.634766 0.000000 m /period glyphshow
11.449219 0.000000 m /one glyphshow
grestore
gsave
/o {
gsave
newpath
translate
0.5 setlinewidth
1 setlinejoin
0 setlinecap
0 0 m
4 0 l

gsave
0.000 setgray
fill
grestore
stroke
grestore
} bind def
118.523 527.22 o
grestore
gsave
95.429711 523.907550 translate
0.000000 rotate
0.000000 0.000000 m /one glyphshow
7.634766 0.000000 m /period glyphshow
11.449219 0.000000 m /two glyphshow
grestore
gsave
/o {
gsave
newpath
translate
0.5 setlinewidth
1 setlinejoin
0 setlinecap
0 0 m
4 0 l

gsave
0.000 setgray
fill
grestore
stroke
grestore
} bind def
118.523 563.493 o
grestore
gsave
95.429711 560.180179 translate
0.000000 rotate
0.000000 0.000000 m /one glyphshow
7.634766 0.000000 m /period glyphshow
11.449219 0.000000 m /three glyphshow
grestore
gsave
/o {
gsave
newpath
translate
0.5 setlinewidth
1 setlinejoin
0 setlinecap
0 0 m
4 0 l

gsave
0.000 setgray
fill
grestore
stroke
grestore
} bind def
118.523 599.765 o
grestore
gsave
95.429711 596.452808 translate
0.000000 rotate
0.000000 0.000000 m /one glyphshow
7.634766 0.000000 m /period glyphshow
11.449219 0.000000 m /four glyphshow
grestore
gsave
/o {
gsave
newpath
translate
0.5 setlinewidth
1 setlinejoin
0 setlinecap
0 0 m
4 0 l

gsave
0.000 setgray
fill
grestore
stroke
grestore
} bind def
118.523 636.038 o
grestore
gsave
95.429711 632.725437 translate
0.000000 rotate
0.000000 0.000000 m /one glyphshow
7.634766 0.000000 m /period glyphshow
11.449219 0.000000 m /five glyphshow
grestore
gsave
/o {
gsave
newpath
translate
0.5 setlinewidth
1 setlinejoin
0 setlinecap
0 0 m
4 0 l

gsave
0.000 setgray
fill
grestore
stroke
grestore
} bind def
118.523 672.311 o
grestore
gsave
95.429711 668.998067 translate
0.000000 rotate
0.000000 0.000000 m /one glyphshow
7.634766 0.000000 m /period glyphshow
11.449219 0.000000 m /six glyphshow
grestore
gsave
/o {
gsave
newpath
translate
0.5 setlinewidth
1 setlinejoin
0 setlinecap
0 0 m
4 0 l

gsave
0.000 setgray
fill
grestore
stroke
grestore
} bind def
118.523 708.583 o
grestore
gsave
95.429711 705.270696 translate
0.000000 rotate
0.000000 0.000000 m /one glyphshow
7.634766 0.000000 m /period glyphshow
11.449219 0.000000 m /seven glyphshow
grestore
gsave
/o {
gsave
newpath
translate
0.5 setlinewidth
1 setlinejoin
0 setlinecap
0 0 m
4 0 l

gsave
0.000 setgray
fill
grestore
stroke
grestore
} bind def
118.523 744.856 o
grestore
gsave
95.429711 741.543325 translate
0.000000 rotate
0.000000 0.000000 m /one glyphshow
7.634766 0.000000 m /period glyphshow
11.449219 0.000000 m /eight glyphshow
grestore
gsave
/o {
gsave
newpath
translate
0.5 setlinewidth
1 setlinejoin
0 setlinecap
0 0 m
4 0 l

gsave
0.000 setgray
fill
grestore
stroke
grestore
} bind def
118.523 781.128 o
grestore
gsave
95.429711 777.815954 translate
0.000000 rotate
0.000000 0.000000 m /one glyphshow
7.634766 0.000000 m /period glyphshow
11.449219 0.000000 m /nine glyphshow
grestore
gsave
87.929711 441.409167 translate
90.000000 rotate
0.000000 0.000000 m /L glyphshow
6.685547 0.000000 m /o glyphshow
14.027344 0.000000 m /s glyphshow
20.279297 0.000000 m /s glyphshow
grestore
/BitstreamVeraSans-Roman findfont
14.400 scalefont
setfont
gsave
484.963984 822.401083 translate
0.000000 rotate
0.000000 0.000000 m /C glyphshow
10.037231 0.000000 m /o glyphshow
18.832092 0.000000 m /m glyphshow
32.835083 0.000000 m /p glyphshow
41.959839 0.000000 m /a glyphshow
50.768738 0.000000 m /r glyphshow
56.678772 0.000000 m /a glyphshow
65.487671 0.000000 m /ccedilla glyphshow
73.391113 0.000000 m /atilde glyphshow
82.200012 0.000000 m /o glyphshow
90.994873 0.000000 m /space glyphshow
95.564270 0.000000 m /e glyphshow
104.408264 0.000000 m /n glyphshow
113.518982 0.000000 m /t glyphshow
119.155273 0.000000 m /r glyphshow
125.065308 0.000000 m /e glyphshow
133.909302 0.000000 m /space glyphshow
138.478699 0.000000 m /L glyphshow
146.487427 0.000000 m /o glyphshow
155.282288 0.000000 m /s glyphshow
162.771606 0.000000 m /s glyphshow
170.260925 0.000000 m /space glyphshow
174.830322 0.000000 m /e glyphshow
183.674316 0.000000 m /space glyphshow
188.243713 0.000000 m /I glyphshow
192.483215 0.000000 m /o glyphshow
201.278076 0.000000 m /U glyphshow
211.799622 0.000000 m /space glyphshow
216.369019 0.000000 m /p glyphshow
225.493774 0.000000 m /o glyphshow
234.288635 0.000000 m /r glyphshow
240.198669 0.000000 m /space glyphshow
244.768066 0.000000 m /i glyphshow
248.761902 0.000000 m /t glyphshow
254.398193 0.000000 m /e glyphshow
263.242188 0.000000 m /r glyphshow
269.152222 0.000000 m /a glyphshow
277.961121 0.000000 m /ccedilla glyphshow
285.864563 0.000000 m /atilde glyphshow
294.673462 0.000000 m /o glyphshow
grestore
1.000 setlinewidth
2 setlinecap
0.000 0.500 0.000 setrgbcolor
gsave
1036 725.5 118.5 91.95 clipbox
133.329351 468.382218 m
148.135241 479.540404 l
162.941131 493.79047 l
177.747021 500.674289 l
192.552911 499.990187 l
266.58236 491.569859 l
340.61181 476.764823 l
414.64126 464.206513 l
488.67071 445.177892 l
562.70016 428.775409 l
636.729609 421.80381 l
710.759059 413.670761 l
784.788509 404.847081 l
stroke
grestore
0.000 0.000 1.000 setrgbcolor
gsave
1036 725.5 118.5 91.95 clipbox
133.329351 479.256752 m
148.135241 490.869797 l
162.941131 499.188562 l
177.747021 486.525062 l
192.552911 486.04191 l
207.358801 481.782053 l
222.164691 483.611644 l
236.970581 482.419 l
251.776471 490.453388 l
266.58236 485.985325 l
281.38825 481.974298 l
296.19414 488.715929 l
311.00003 488.744947 l
325.80592 485.595757 l
340.61181 483.08424 l
355.4177 486.125338 l
370.22359 477.628837 l
385.02948 484.493069 l
399.83537 493.282653 l
414.64126 486.387951 l
stroke
grestore
0 setlinejoin
0.000 setgray
gsave
118.523461 91.9485 m
118.523461 817.401083 l
stroke
grestore
gsave
1154.935758 91.9485 m
1154.935758 817.401083 l
stroke
grestore
gsave
118.523461 91.9485 m
1154.935758 91.9485 l
stroke
grestore
gsave
118.523461 817.401083 m
1154.935758 817.401083 l
stroke
grestore
0.500 setlinewidth
1 setlinejoin
0 setlinecap
gsave
/o {
gsave
newpath
translate
0.5 setlinewidth
1 setlinejoin
0 setlinecap
0 0 m
-4 0 l

gsave
0.000 setgray
fill
grestore
stroke
grestore
} bind def
1154.94 91.9485 o
grestore
/BitstreamVeraSans-Roman findfont
12.000 scalefont
setfont
gsave
1158.935758 88.636000 translate
0.000000 rotate
0.000000 0.000000 m /zero glyphshow
7.634766 0.000000 m /period glyphshow
11.449219 0.000000 m /zero glyphshow
19.083984 0.000000 m /zero glyphshow
grestore
gsave
/o {
gsave
newpath
translate
0.5 setlinewidth
1 setlinejoin
0 setlinecap
0 0 m
-4 0 l

gsave
0.000 setgray
fill
grestore
stroke
grestore
} bind def
1154.94 128.221 o
grestore
gsave
1158.935758 124.908629 translate
0.000000 rotate
0.000000 0.000000 m /zero glyphshow
7.634766 0.000000 m /period glyphshow
11.449219 0.000000 m /zero glyphshow
19.083984 0.000000 m /five glyphshow
grestore
gsave
/o {
gsave
newpath
translate
0.5 setlinewidth
1 setlinejoin
0 setlinecap
0 0 m
-4 0 l

gsave
0.000 setgray
fill
grestore
stroke
grestore
} bind def
1154.94 164.494 o
grestore
gsave
1158.935758 161.181258 translate
0.000000 rotate
0.000000 0.000000 m /zero glyphshow
7.634766 0.000000 m /period glyphshow
11.449219 0.000000 m /one glyphshow
19.083984 0.000000 m /zero glyphshow
grestore
gsave
/o {
gsave
newpath
translate
0.5 setlinewidth
1 setlinejoin
0 setlinecap
0 0 m
-4 0 l

gsave
0.000 setgray
fill
grestore
stroke
grestore
} bind def
1154.94 200.766 o
grestore
gsave
1158.935758 197.453888 translate
0.000000 rotate
0.000000 0.000000 m /zero glyphshow
7.634766 0.000000 m /period glyphshow
11.449219 0.000000 m /one glyphshow
19.083984 0.000000 m /five glyphshow
grestore
gsave
/o {
gsave
newpath
translate
0.5 setlinewidth
1 setlinejoin
0 setlinecap
0 0 m
-4 0 l

gsave
0.000 setgray
fill
grestore
stroke
grestore
} bind def
1154.94 237.039 o
grestore
gsave
1158.935758 233.726517 translate
0.000000 rotate
0.000000 0.000000 m /zero glyphshow
7.634766 0.000000 m /period glyphshow
11.449219 0.000000 m /two glyphshow
19.083984 0.000000 m /zero glyphshow
grestore
gsave
/o {
gsave
newpath
translate
0.5 setlinewidth
1 setlinejoin
0 setlinecap
0 0 m
-4 0 l

gsave
0.000 setgray
fill
grestore
stroke
grestore
} bind def
1154.94 273.312 o
grestore
gsave
1158.935758 269.999146 translate
0.000000 rotate
0.000000 0.000000 m /zero glyphshow
7.634766 0.000000 m /period glyphshow
11.449219 0.000000 m /two glyphshow
19.083984 0.000000 m /five glyphshow
grestore
gsave
/o {
gsave
newpath
translate
0.5 setlinewidth
1 setlinejoin
0 setlinecap
0 0 m
-4 0 l

gsave
0.000 setgray
fill
grestore
stroke
grestore
} bind def
1154.94 309.584 o
grestore
gsave
1158.935758 306.271775 translate
0.000000 rotate
0.000000 0.000000 m /zero glyphshow
7.634766 0.000000 m /period glyphshow
11.449219 0.000000 m /three glyphshow
19.083984 0.000000 m /zero glyphshow
grestore
gsave
/o {
gsave
newpath
translate
0.5 setlinewidth
1 setlinejoin
0 setlinecap
0 0 m
-4 0 l

gsave
0.000 setgray
fill
grestore
stroke
grestore
} bind def
1154.94 345.857 o
grestore
gsave
1158.935758 342.544404 translate
0.000000 rotate
0.000000 0.000000 m /zero glyphshow
7.634766 0.000000 m /period glyphshow
11.449219 0.000000 m /three glyphshow
19.083984 0.000000 m /five glyphshow
grestore
gsave
/o {
gsave
newpath
translate
0.5 setlinewidth
1 setlinejoin
0 setlinecap
0 0 m
-4 0 l

gsave
0.000 setgray
fill
grestore
stroke
grestore
} bind def
1154.94 382.13 o
grestore
gsave
1158.935758 378.817033 translate
0.000000 rotate
0.000000 0.000000 m /zero glyphshow
7.634766 0.000000 m /period glyphshow
11.449219 0.000000 m /four glyphshow
19.083984 0.000000 m /zero glyphshow
grestore
gsave
/o {
gsave
newpath
translate
0.5 setlinewidth
1 setlinejoin
0 setlinecap
0 0 m
-4 0 l

gsave
0.000 setgray
fill
grestore
stroke
grestore
} bind def
1154.94 418.402 o
grestore
gsave
1158.935758 415.089662 translate
0.000000 rotate
0.000000 0.000000 m /zero glyphshow
7.634766 0.000000 m /period glyphshow
11.449219 0.000000 m /four glyphshow
19.083984 0.000000 m /five glyphshow
grestore
gsave
/o {
gsave
newpath
translate
0.5 setlinewidth
1 setlinejoin
0 setlinecap
0 0 m
-4 0 l

gsave
0.000 setgray
fill
grestore
stroke
grestore
} bind def
1154.94 454.675 o
grestore
gsave
1158.935758 451.362292 translate
0.000000 rotate
0.000000 0.000000 m /zero glyphshow
7.634766 0.000000 m /period glyphshow
11.449219 0.000000 m /five glyphshow
19.083984 0.000000 m /zero glyphshow
grestore
gsave
/o {
gsave
newpath
translate
0.5 setlinewidth
1 setlinejoin
0 setlinecap
0 0 m
-4 0 l

gsave
0.000 setgray
fill
grestore
stroke
grestore
} bind def
1154.94 490.947 o
grestore
gsave
1158.935758 487.634921 translate
0.000000 rotate
0.000000 0.000000 m /zero glyphshow
7.634766 0.000000 m /period glyphshow
11.449219 0.000000 m /five glyphshow
19.083984 0.000000 m /five glyphshow
grestore
gsave
/o {
gsave
newpath
translate
0.5 setlinewidth
1 setlinejoin
0 setlinecap
0 0 m
-4 0 l

gsave
0.000 setgray
fill
grestore
stroke
grestore
} bind def
1154.94 527.22 o
grestore
gsave
1158.935758 523.907550 translate
0.000000 rotate
0.000000 0.000000 m /zero glyphshow
7.634766 0.000000 m /period glyphshow
11.449219 0.000000 m /six glyphshow
19.083984 0.000000 m /zero glyphshow
grestore
gsave
/o {
gsave
newpath
translate
0.5 setlinewidth
1 setlinejoin
0 setlinecap
0 0 m
-4 0 l

gsave
0.000 setgray
fill
grestore
stroke
grestore
} bind def
1154.94 563.493 o
grestore
gsave
1158.935758 560.180179 translate
0.000000 rotate
0.000000 0.000000 m /zero glyphshow
7.634766 0.000000 m /period glyphshow
11.449219 0.000000 m /six glyphshow
19.083984 0.000000 m /five glyphshow
grestore
gsave
/o {
gsave
newpath
translate
0.5 setlinewidth
1 setlinejoin
0 setlinecap
0 0 m
-4 0 l

gsave
0.000 setgray
fill
grestore
stroke
grestore
} bind def
1154.94 599.765 o
grestore
gsave
1158.935758 596.452808 translate
0.000000 rotate
0.000000 0.000000 m /zero glyphshow
7.634766 0.000000 m /period glyphshow
11.449219 0.000000 m /seven glyphshow
19.083984 0.000000 m /zero glyphshow
grestore
gsave
/o {
gsave
newpath
translate
0.5 setlinewidth
1 setlinejoin
0 setlinecap
0 0 m
-4 0 l

gsave
0.000 setgray
fill
grestore
stroke
grestore
} bind def
1154.94 636.038 o
grestore
gsave
1158.935758 632.725437 translate
0.000000 rotate
0.000000 0.000000 m /zero glyphshow
7.634766 0.000000 m /period glyphshow
11.449219 0.000000 m /seven glyphshow
19.083984 0.000000 m /five glyphshow
grestore
gsave
/o {
gsave
newpath
translate
0.5 setlinewidth
1 setlinejoin
0 setlinecap
0 0 m
-4 0 l

gsave
0.000 setgray
fill
grestore
stroke
grestore
} bind def
1154.94 672.311 o
grestore
gsave
1158.935758 668.998067 translate
0.000000 rotate
0.000000 0.000000 m /zero glyphshow
7.634766 0.000000 m /period glyphshow
11.449219 0.000000 m /eight glyphshow
19.083984 0.000000 m /zero glyphshow
grestore
gsave
/o {
gsave
newpath
translate
0.5 setlinewidth
1 setlinejoin
0 setlinecap
0 0 m
-4 0 l

gsave
0.000 setgray
fill
grestore
stroke
grestore
} bind def
1154.94 708.583 o
grestore
gsave
1158.935758 705.270696 translate
0.000000 rotate
0.000000 0.000000 m /zero glyphshow
7.634766 0.000000 m /period glyphshow
11.449219 0.000000 m /eight glyphshow
19.083984 0.000000 m /five glyphshow
grestore
gsave
/o {
gsave
newpath
translate
0.5 setlinewidth
1 setlinejoin
0 setlinecap
0 0 m
-4 0 l

gsave
0.000 setgray
fill
grestore
stroke
grestore
} bind def
1154.94 744.856 o
grestore
gsave
1158.935758 741.543325 translate
0.000000 rotate
0.000000 0.000000 m /zero glyphshow
7.634766 0.000000 m /period glyphshow
11.449219 0.000000 m /nine glyphshow
19.083984 0.000000 m /zero glyphshow
grestore
gsave
/o {
gsave
newpath
translate
0.5 setlinewidth
1 setlinejoin
0 setlinecap
0 0 m
-4 0 l

gsave
0.000 setgray
fill
grestore
stroke
grestore
} bind def
1154.94 781.128 o
grestore
gsave
1158.935758 777.815954 translate
0.000000 rotate
0.000000 0.000000 m /zero glyphshow
7.634766 0.000000 m /period glyphshow
11.449219 0.000000 m /nine glyphshow
19.083984 0.000000 m /five glyphshow
grestore
gsave
1199.795133 444.838854 translate
90.000000 rotate
0.000000 0.000000 m /I glyphshow
3.539062 0.000000 m /o glyphshow
10.880859 0.000000 m /U glyphshow
grestore
1.000 setlinewidth
0 setlinejoin
gsave
1027.317633 722.893583 m
1147.735758 722.893583 l
1147.735758 810.201083 l
1027.317633 810.201083 l
cl
gsave
1.000 setgray
fill
grestore
stroke
grestore
1 setlinejoin
2 setlinecap
1.000 0.000 0.000 setrgbcolor
gsave
1037.397633 798.840458 m
1057.557633 798.840458 l
stroke
grestore
0.000 setgray
/BitstreamVeraSans-Roman findfont
14.400 scalefont
setfont
gsave
1073.397633 793.800458 translate
0.000000 rotate
0.000000 0.000000 m /L glyphshow
8.008728 0.000000 m /r glyphshow
13.918762 0.000000 m /space glyphshow
18.488159 0.000000 m /period glyphshow
23.057556 0.000000 m /two glyphshow
32.203369 0.000000 m /space glyphshow
36.772766 0.000000 m /L glyphshow
44.781494 0.000000 m /o glyphshow
53.576355 0.000000 m /s glyphshow
61.065674 0.000000 m /s glyphshow
grestore
0.000 0.750 0.750 setrgbcolor
gsave
1037.397633 778.093583 m
1057.557633 778.093583 l
stroke
grestore
0.000 setgray
gsave
1073.397633 773.053583 translate
0.000000 rotate
0.000000 0.000000 m /L glyphshow
8.008728 0.000000 m /r glyphshow
13.918762 0.000000 m /space glyphshow
18.488159 0.000000 m /period glyphshow
23.057556 0.000000 m /zero glyphshow
32.203369 0.000000 m /space glyphshow
36.772766 0.000000 m /L glyphshow
44.781494 0.000000 m /o glyphshow
53.576355 0.000000 m /s glyphshow
61.065674 0.000000 m /s glyphshow
grestore
0.000 0.500 0.000 setrgbcolor
gsave
1037.397633 757.346708 m
1057.557633 757.346708 l
stroke
grestore
0.000 setgray
gsave
1073.397633 752.306708 translate
0.000000 rotate
0.000000 0.000000 m /L glyphshow
8.008728 0.000000 m /r glyphshow
13.918762 0.000000 m /space glyphshow
18.488159 0.000000 m /period glyphshow
23.057556 0.000000 m /two glyphshow
32.203369 0.000000 m /space glyphshow
36.772766 0.000000 m /I glyphshow
41.012268 0.000000 m /o glyphshow
49.807129 0.000000 m /U glyphshow
grestore
0.000 0.000 1.000 setrgbcolor
gsave
1037.397633 736.599833 m
1057.557633 736.599833 l
stroke
grestore
0.000 setgray
gsave
1073.397633 731.559833 translate
0.000000 rotate
0.000000 0.000000 m /L glyphshow
8.008728 0.000000 m /r glyphshow
13.918762 0.000000 m /space glyphshow
18.488159 0.000000 m /period glyphshow
23.057556 0.000000 m /zero glyphshow
32.203369 0.000000 m /space glyphshow
36.772766 0.000000 m /I glyphshow
41.012268 0.000000 m /o glyphshow
49.807129 0.000000 m /U glyphshow
grestore

end
showpage
